Attrition,MonthlyRate,Age,DailyRate,YearsAtCompany,TotalWorkingYears,HourlyRate,DistanceFromHome,PercentSalaryHike,NumCompaniesWorked,YearsInCurrentRole,TrainingTimesLastYear,EnvironmentSatisfaction,YearsWithCurrManager,JobSatisfaction,EnvironmentSatisfaction,JobInvolvement
1,19479,41,1102,6,8,94,1,11,8,4,0,2,5,4,2,3
0,24907,49,279,10,10,61,8,23,1,7,3,3,7,2,3,2
1,2396,37,1373,0,7,92,2,15,6,0,3,4,0,3,4,2
0,23159,33,1392,8,8,56,3,11,1,7,3,4,0,3,4,3
0,16632,27,591,2,6,40,2,12,9,2,3,1,2,2,1,3
0,11864,32,1005,7,8,79,2,13,0,7,2,4,6,4,4,3
0,9964,59,1324,1,12,81,3,20,4,0,3,3,0,1,3,4
0,13335,30,1358,1,1,67,24,22,1,0,2,4,0,3,4,3
0,8787,38,216,9,10,44,23,21,0,7,2,4,8,3,4,2
0,16577,36,1299,7,17,94,27,13,6,7,3,3,7,3,3,3
0,16479,35,809,5,6,84,16,13,0,4,5,1,3,2,1,4
0,12682,29,153,9,10,49,15,12,0,5,3,4,8,3,4,2
0,15170,31,670,5,5,31,26,17,1,2,1,1,3,3,1,3
0,8758,34,1346,2,3,93,19,11,0,2,2,2,2,4,2,3
1,12947,28,103,4,6,50,24,14,5,2,4,3,3,3,3,2
0,10195,29,1389,10,10,51,21,11,1,9,1,2,8,1,2,4
0,15053,32,334,6,7,80,5,12,0,2,5,1,5,2,1,4
0,7324,22,1123,1,1,96,16,13,1,0,2,4,0,4,4,4
0,22021,53,1219,25,31,78,2,16,2,8,3,1,7,4,1,2
0,4306,38,371,3,6,45,2,11,5,2,3,4,2,4,4,3
0,8232,24,673,4,5,96,11,18,0,2,5,1,3,3,1,4
1,6986,36,1218,5,10,82,9,23,7,3,4,3,3,1,3,2
0,21293,34,419,12,13,53,7,11,0,6,4,1,11,2,1,3
0,19281,21,391,0,0,96,15,14,1,0,6,3,0,4,3,3
1,17102,34,699,4,8,83,6,11,2,2,2,2,3,1,2,3
0,10735,53,1282,14,26,58,5,11,4,13,3,3,8,3,3,3
1,4681,32,1125,10,10,72,16,22,1,2,5,2,7,1,2,1
0,21173,42,691,9,10,48,8,11,0,7,2,3,2,2,3,3
0,2094,44,477,22,24,42,7,14,3,6,4,1,17,4,1,2
0,22822,46,705,2,22,83,2,12,3,2,2,2,1,1,2,3
0,6670,33,924,1,7,78,2,11,4,1,3,3,0,4,3,3
0,19121,44,1459,4,9,41,10,13,2,2,5,4,3,4,4,3
0,16117,30,125,10,10,83,9,13,1,0,5,4,8,3,4,2
1,3335,39,895,1,19,56,5,14,3,0,6,4,0,4,4,3
1,3020,24,813,2,6,61,1,16,2,0,2,2,0,4,2,3
0,21923,43,1273,5,6,72,2,12,1,3,3,4,4,3,4,4
1,3810,50,869,3,3,86,3,14,1,2,2,1,2,3,1,2
0,9687,35,890,2,2,97,2,13,1,2,3,4,2,4,4,3
0,13072,36,852,1,6,82,5,14,9,1,3,2,0,1,2,2
0,3193,33,1141,5,10,42,1,19,2,3,3,3,3,1,3,4
0,10910,35,464,1,1,75,4,12,1,0,3,3,0,4,3,3
0,19715,27,1240,1,1,33,2,13,1,0,6,4,0,1,4,3
1,10558,26,1357,1,1,48,25,12,1,0,2,1,1,3,1,1
0,2975,27,994,9,9,37,8,15,1,8,0,4,7,3,4,3
0,10781,30,721,12,12,58,1,23,1,8,2,3,7,4,3,3
1,16280,41,1360,22,23,49,12,12,1,15,0,2,8,3,2,3
0,10034,34,1065,9,10,72,23,20,0,5,2,2,7,3,2,3
0,10227,37,408,1,8,73,19,21,4,0,1,2,0,2,2,3
0,20445,46,1211,9,14,98,5,21,4,6,4,1,8,4,1,3
0,4892,35,1229,1,1,36,8,19,1,0,2,4,1,4,4,4
1,19294,48,626,1,23,98,1,13,9,0,2,1,0,3,1,2
1,11179,28,1434,2,2,50,5,13,1,2,3,3,2,3,3,3
0,4009,44,1488,4,9,75,1,21,5,3,2,2,3,1,2,3
0,8302,35,1097,4,10,79,11,13,2,0,3,3,3,1,3,2
0,21436,26,1443,2,5,47,23,19,7,2,2,3,0,4,3,2
0,15146,33,515,15,15,98,1,12,1,14,1,1,12,4,1,3
0,11031,35,853,9,9,71,18,22,1,8,3,2,8,1,2,3
0,16002,35,1142,2,4,30,23,15,3,2,3,3,2,1,3,3
0,9528,31,655,7,10,48,7,22,3,7,3,4,7,4,4,3
0,2689,37,1115,7,7,51,1,18,1,5,2,1,7,3,1,2
0,10877,32,427,9,9,33,1,22,1,8,3,1,8,4,1,3
0,5456,38,653,10,10,50,29,11,1,3,2,4,9,4,4,3
0,16701,50,989,27,29,43,7,12,5,3,2,2,8,3,2,2
0,2354,59,1435,21,28,99,25,11,7,16,3,1,9,1,1,3
0,8202,36,1223,17,17,59,8,13,1,14,2,3,8,3,3,3
0,19730,55,836,5,21,33,8,14,2,0,2,4,2,3,4,3
0,22656,36,1195,6,6,95,11,13,1,5,3,2,3,2,2,2
0,18787,45,1339,1,25,59,7,17,2,0,2,2,0,1,2,3
0,5868,35,664,3,5,79,1,13,4,2,2,2,2,1,2,3
1,21777,36,318,1,2,79,9,17,0,0,0,4,0,3,4,2
0,24668,59,1225,4,20,57,1,11,7,3,2,1,3,3,1,2
0,4956,29,1328,5,6,76,2,23,0,4,3,3,4,2,3,3
0,18775,31,1082,1,1,87,1,17,1,1,4,3,0,2,3,3
0,7346,32,548,10,10,66,1,17,1,4,3,2,9,2,2,3
0,22002,36,132,1,5,55,6,12,3,0,3,2,0,4,2,4
0,20682,31,746,11,11,61,8,23,1,7,2,3,8,4,3,3
0,23016,35,776,15,16,32,1,14,0,13,2,3,8,1,3,2
0,15067,45,193,0,17,52,6,14,4,0,3,4,0,1,4,3
0,25258,37,397,5,16,30,7,13,4,2,3,1,2,3,1,3
0,10425,46,945,4,16,80,5,22,8,2,2,2,2,2,2,3
0,15998,30,852,10,10,55,1,12,1,8,1,4,0,4,4,2
0,26278,35,1214,6,6,30,1,18,1,4,3,2,4,3,2,2
0,18092,55,111,1,24,70,1,14,3,0,4,1,0,4,1,3
0,15717,38,573,13,17,79,6,12,7,11,3,2,9,4,2,1
0,17736,34,1153,5,5,94,1,15,1,2,2,1,3,2,1,3
0,21698,56,1400,6,37,49,7,11,4,4,3,4,2,4,4,1
0,9518,23,541,0,3,62,2,13,3,0,3,3,0,1,3,3
0,18725,51,432,4,10,96,9,23,3,2,4,4,3,4,4,3
0,15830,30,288,11,11,99,2,19,1,10,3,3,8,4,3,2
1,13596,46,669,9,9,64,9,16,1,8,3,3,7,4,3,2
0,14115,40,530,22,22,78,1,22,1,3,3,3,11,2,3,2
0,8423,51,632,10,11,71,21,22,0,7,2,3,0,4,3,3
0,19760,30,1334,11,11,63,4,12,1,8,4,3,7,2,3,2
0,3142,46,638,10,21,40,1,13,2,9,5,3,5,1,3,2
0,24301,32,1093,11,12,87,6,16,1,8,0,2,7,3,2,3
0,24001,54,1217,4,16,60,2,12,9,3,5,1,3,3,1,3
0,17519,24,1353,3,4,33,3,21,0,2,2,1,2,3,1,3
0,8863,28,120,5,5,43,4,15,1,4,3,2,4,3,2,3
0,24409,58,682,37,38,37,10,13,0,10,1,4,8,3,4,3
0,25043,44,489,3,17,67,23,12,4,2,3,2,2,2,2,3
1,23648,37,807,3,7,63,6,22,4,2,3,3,2,1,3,3
0,15178,32,827,1,1,71,1,13,1,0,2,4,0,1,4,3
1,19783,20,871,1,1,66,6,18,1,0,5,4,0,4,4,2
0,12482,34,665,16,16,41,6,14,1,13,3,1,10,3,1,3
0,15850,37,1040,1,17,100,2,14,5,0,2,3,0,4,3,2
0,21922,59,1420,3,30,32,2,21,9,2,3,3,2,4,3,2
0,9755,50,1115,8,28,73,1,19,3,3,1,1,7,2,1,3
1,26959,25,240,6,6,46,5,11,1,4,1,3,3,3,3,2
0,26897,25,1280,2,2,64,7,11,1,2,2,4,1,4,4,2
0,23785,22,534,0,1,59,15,15,1,0,5,2,0,4,2,3
0,25796,51,1456,13,23,30,1,20,3,12,1,1,8,1,1,2
1,22887,34,658,9,9,66,7,24,1,7,3,1,6,3,1,1
0,13871,54,142,5,23,30,26,12,2,3,3,4,4,4,4,4
0,13257,24,1127,5,6,52,18,12,0,3,2,2,2,3,2,3
0,15000,34,1031,1,12,45,6,15,6,0,3,3,0,2,3,2
0,14506,37,1189,5,12,87,3,12,2,3,3,3,3,4,3,3
0,5615,34,1354,11,14,45,5,12,2,10,6,3,8,1,3,2
0,22952,36,1467,9,10,92,11,14,0,7,6,2,8,4,2,3
0,2561,36,922,1,7,39,3,22,5,0,2,1,0,4,1,3
0,19494,43,394,25,25,92,26,12,1,12,3,3,12,4,3,3
0,22310,30,1312,10,10,96,23,25,1,7,2,1,9,3,1,1
0,15480,33,750,7,8,95,22,13,0,7,2,3,7,2,3,3
1,4510,56,441,5,7,72,14,18,9,4,2,2,3,2,2,3
0,6462,51,684,20,23,51,6,13,7,18,5,1,15,3,1,3
1,20739,31,249,7,12,76,6,18,4,7,3,2,7,3,2,1
0,23300,26,841,5,5,46,6,19,1,4,3,3,3,2,3,2
1,3465,58,147,40,40,94,23,12,1,10,3,4,6,4,4,3
1,26820,19,528,0,0,50,22,19,1,0,2,4,0,3,4,3
0,19299,22,594,2,3,100,2,14,0,1,2,3,1,4,3,3
0,5549,49,470,15,16,96,20,14,1,11,2,3,11,1,3,3
0,16090,43,957,3,18,72,28,12,4,2,2,2,2,3,2,4
0,6645,50,809,2,16,77,12,11,4,2,3,3,1,4,3,3
1,24788,31,542,2,4,71,20,11,3,2,2,2,2,3,2,1
0,21196,41,802,9,12,96,9,13,3,7,2,3,7,3,3,3
0,8916,26,1355,8,8,61,25,23,1,7,3,3,7,3,3,3
0,2819,36,216,3,7,84,6,20,6,2,0,2,1,2,2,3
1,25150,51,1150,4,18,53,8,15,2,2,2,1,3,4,1,1
0,14590,39,1329,15,17,47,4,14,4,11,1,4,9,3,4,2
0,24835,25,959,2,6,41,28,18,2,2,3,1,2,3,1,2
0,13982,30,1240,11,12,48,9,19,0,9,2,3,7,4,3,3
1,10224,32,1033,5,10,41,9,22,7,4,2,1,4,1,1,3
0,9752,45,1316,6,9,83,29,13,5,5,2,3,3,4,3,3
0,2302,38,364,3,19,32,3,20,3,2,2,4,2,3,4,3
0,23910,30,438,5,5,75,18,14,1,4,4,1,4,3,1,3
0,22812,32,689,8,9,35,9,17,0,7,2,4,7,4,4,1
0,10415,30,201,3,8,84,5,14,5,2,3,4,2,1,4,3
0,11162,30,1427,5,6,35,2,13,0,3,3,2,2,4,2,2
0,12888,41,857,7,21,91,10,13,4,6,2,4,7,1,4,2
0,6961,41,933,5,7,94,9,21,2,0,2,3,4,1,3,3
0,16102,19,1181,1,1,79,3,14,1,0,3,2,0,2,2,3
0,8504,40,1395,20,20,54,26,11,1,7,2,2,13,2,2,3
0,11439,35,662,10,10,94,1,13,1,8,3,3,6,2,3,3
0,16047,53,1436,7,13,34,6,20,2,7,3,2,5,3,2,3
0,10901,45,194,17,20,60,9,18,8,9,2,2,15,2,2,3
0,15589,32,967,9,9,43,8,14,1,8,2,2,7,4,2,3
0,26283,29,1496,10,10,41,1,13,1,7,1,4,9,3,4,3
0,13983,51,1169,1,10,34,7,17,2,0,2,2,0,3,2,2
0,11873,58,1145,1,9,75,9,20,4,0,3,2,0,2,2,2
0,8552,40,630,12,15,67,4,11,7,11,2,3,11,4,3,2
0,11314,34,303,4,6,75,2,18,6,3,3,3,2,3,3,3
0,11992,22,1256,2,2,80,19,24,1,2,6,3,2,4,3,3
0,5970,27,691,2,6,57,9,18,6,2,1,4,2,2,4,3
0,6672,28,440,5,5,42,21,11,1,2,2,3,2,4,3,3
0,23402,57,334,5,12,83,24,16,3,3,2,3,4,4,3,4
0,25326,27,1450,1,1,79,3,15,1,1,2,3,1,3,3,2
0,17053,50,1452,5,21,53,11,15,3,4,5,3,4,2,3,3
0,4609,41,465,9,13,56,14,12,4,8,2,1,8,3,1,3
0,8053,30,1339,10,12,41,5,12,2,9,2,2,4,4,2,3
0,12930,38,702,8,12,59,1,22,4,3,2,1,7,4,1,2
0,12430,32,120,5,8,43,6,20,3,4,2,3,4,3,3,3
0,13364,27,1157,5,6,51,17,16,0,2,3,3,1,2,3,3
1,20989,19,602,0,1,100,1,21,0,0,5,3,0,1,3,1
0,15062,36,1480,8,13,30,3,12,4,7,3,4,2,2,4,3
0,11012,30,111,12,12,66,9,11,1,9,4,3,10,1,3,3
0,6319,45,1268,5,9,30,4,11,4,4,3,3,3,1,3,3
0,13939,56,713,2,19,67,8,18,4,2,3,3,2,1,3,3
0,10515,33,134,3,4,90,2,14,0,1,2,3,2,4,3,3
1,9241,19,303,1,1,47,2,22,1,0,3,2,0,4,2,2
0,2137,46,526,24,24,92,1,25,1,13,2,2,7,1,2,3
0,6319,38,1380,2,2,75,9,12,1,2,3,3,1,4,3,3
0,6984,31,140,4,7,95,12,23,8,2,0,3,2,4,3,3
0,5711,34,629,3,9,95,27,15,2,2,3,4,2,2,4,3
1,21728,41,1356,4,4,70,20,22,1,3,5,2,2,2,2,3
0,3425,50,328,3,5,86,1,15,2,2,2,3,2,3,3,2
0,26250,53,1084,4,5,57,13,11,1,2,3,4,3,1,4,4
0,4673,33,931,8,8,72,14,13,1,7,5,4,6,2,4,3
0,6499,40,989,20,21,46,4,14,1,8,2,4,9,3,4,3
0,13339,55,692,24,36,61,14,11,8,15,3,3,15,2,3,4
0,14074,34,1069,10,10,45,2,17,1,9,2,4,9,3,4,2
0,7192,51,313,7,21,98,3,18,3,7,6,4,0,2,4,3
0,5678,52,699,33,34,65,1,14,0,18,5,3,9,3,3,2
0,11781,27,894,7,7,99,9,16,1,7,2,4,3,2,4,3
1,15497,35,556,1,8,50,23,13,3,0,1,2,1,3,2,2
0,5228,43,1344,5,7,37,7,14,4,4,3,4,2,4,4,4
0,20462,45,1195,20,22,65,2,23,9,8,1,1,8,4,1,2
0,22977,37,290,8,8,65,21,12,1,7,3,2,7,1,2,4
0,15986,35,138,6,10,37,2,11,5,2,5,2,2,2,2,3
0,16439,42,926,5,11,36,21,16,2,3,5,3,2,3,3,3
0,7259,38,1261,1,14,88,2,14,9,0,3,4,0,3,4,3
0,4185,38,1084,7,9,54,29,18,3,7,3,4,7,4,4,3
0,9679,27,472,2,6,60,1,19,5,2,1,3,0,1,3,2
0,23793,49,1002,7,7,92,18,15,1,7,0,4,7,4,4,3
0,5972,34,878,5,5,43,10,17,1,3,4,4,0,3,4,3
0,16523,40,905,7,15,99,19,15,8,2,2,3,7,4,3,3
1,11354,38,1180,1,17,70,29,19,7,0,2,2,0,1,2,3
1,24525,29,121,10,10,35,27,22,1,4,3,2,9,4,2,3
0,12392,22,1136,4,4,60,5,16,1,2,2,4,2,2,4,4
0,7703,36,635,8,8,73,18,13,1,1,2,2,7,4,2,3
0,14242,40,1151,3,5,63,9,14,9,2,5,4,2,4,4,2
0,12368,46,644,4,17,97,1,16,7,2,3,4,3,1,4,3
1,25812,32,1045,14,14,32,4,11,1,8,2,4,8,4,4,1
0,20925,30,829,11,12,88,1,22,1,8,2,3,8,3,3,2
0,12916,27,1242,7,7,90,20,14,1,7,2,4,7,3,4,3
0,15736,51,1469,10,16,81,8,16,5,9,5,2,7,2,2,2
1,8556,30,1005,5,8,88,3,11,5,2,5,4,4,1,4,3
0,14674,41,896,1,16,75,6,18,3,0,3,4,0,4,4,3
1,22967,30,334,6,9,52,26,15,5,3,5,3,1,1,3,2
1,19757,29,992,6,7,85,1,14,0,2,1,3,5,3,3,3
0,16840,45,1052,19,23,57,6,12,6,7,2,4,8,4,4,2
0,17011,54,1147,6,16,52,3,14,2,2,4,4,5,1,4,3
0,9945,36,1396,13,16,62,5,16,8,11,3,4,7,2,4,3
0,13248,33,147,3,7,47,4,21,6,2,3,3,1,2,3,2
0,10056,37,663,10,10,47,11,14,1,8,1,2,7,4,2,3
0,9647,38,119,16,17,76,3,12,0,10,6,1,13,3,1,3
0,4381,31,979,5,6,90,1,12,0,4,2,3,4,3,3,1
0,8456,59,142,1,7,70,3,17,3,0,6,3,0,4,3,2
0,2539,37,319,9,13,41,4,17,4,8,2,1,8,4,1,3
0,6599,29,1413,11,11,42,1,14,1,10,5,2,1,4,2,3
0,9096,35,944,10,10,92,1,14,1,7,3,3,8,3,3,3
1,14961,29,896,4,4,86,18,13,1,3,3,3,1,4,3,2
0,3300,52,1323,2,6,89,2,15,7,2,3,3,2,4,3,2
0,4933,42,532,22,22,58,4,11,1,17,3,3,15,4,3,3
0,25657,59,818,2,7,52,6,17,8,2,2,2,2,3,2,3
0,24118,50,854,7,32,68,1,11,3,0,3,4,6,4,4,3
1,22149,33,813,5,8,58,14,13,5,4,2,3,4,4,3,3
0,7744,43,1034,17,22,80,16,22,5,13,3,4,9,4,4,3
1,21509,33,465,9,13,39,2,20,7,7,3,1,7,1,1,3
0,21030,52,771,33,33,79,2,18,1,7,2,1,12,3,1,2
0,20990,32,1401,4,6,56,4,11,2,3,5,3,2,2,3,3
1,9571,32,515,3,4,62,1,14,0,2,2,4,2,3,4,2
0,15417,39,1431,3,7,96,1,14,7,2,1,3,2,3,3,3
0,12069,32,976,3,4,100,26,18,0,2,2,3,2,4,3,3
0,19877,41,1411,1,17,36,19,16,2,0,2,3,0,1,3,3
0,24447,40,1300,9,9,62,24,17,1,8,3,1,7,4,1,3
0,15970,45,252,24,25,70,1,11,0,0,2,3,7,4,3,4
0,13523,31,1327,2,9,73,3,12,9,2,3,2,2,3,2,3
0,14776,33,832,2,2,63,5,13,1,2,2,3,2,4,3,2
0,23687,34,470,11,13,84,2,13,6,9,3,4,9,1,4,2
0,18697,37,1017,3,17,83,1,14,2,1,2,3,2,1,3,2
0,5118,45,1199,3,9,77,7,17,4,2,1,1,2,3,1,4
1,22573,37,504,1,17,61,10,11,6,0,5,1,0,3,1,3
0,6420,39,505,19,20,64,2,25,0,6,1,3,8,3,3,3
0,22673,29,665,6,6,60,15,19,1,5,1,3,5,4,3,3
0,23016,42,916,3,10,82,17,13,3,2,1,4,2,1,4,4
0,10732,29,1247,3,10,45,20,14,2,2,2,4,2,4,4,3
0,7505,25,685,4,5,62,1,12,0,2,3,1,2,3,1,3
0,8007,42,269,9,10,56,2,11,0,6,4,4,8,1,4,2
0,5949,40,1416,21,22,49,2,19,0,7,5,1,9,3,1,3
0,23231,51,833,1,1,96,1,11,1,0,0,3,0,4,3,3
1,11652,31,307,5,6,71,29,11,0,4,2,3,4,2,3,2
0,26062,32,1311,5,5,100,7,20,1,1,3,2,3,2,2,4
0,19682,38,1327,8,13,39,2,18,3,7,0,4,5,4,4,2
0,19737,32,128,6,9,84,2,13,4,2,5,4,4,1,4,2
0,14977,46,488,7,28,75,2,12,3,7,2,3,7,2,3,1
1,14935,28,529,0,5,79,2,11,2,0,5,1,0,3,1,3
0,3687,29,1210,0,10,78,2,19,2,0,2,1,0,2,1,2
0,14408,31,1463,9,10,64,23,21,0,0,2,2,8,4,2,2
0,18384,25,675,6,6,85,5,12,1,3,2,2,5,1,2,4
0,7501,45,1385,20,21,79,20,14,0,7,2,3,10,4,3,3
0,20251,36,1403,15,16,47,6,11,0,13,4,4,11,4,4,3
0,18938,55,452,36,37,81,1,14,0,10,2,4,13,1,4,3
1,10268,47,666,10,10,88,29,12,1,7,2,1,9,2,1,3
0,2613,28,1158,5,5,94,9,23,1,2,3,4,4,4,4,3
0,22825,37,228,5,7,98,6,14,4,4,5,3,1,4,3,3
0,10531,21,996,3,3,100,3,17,1,2,4,4,0,3,4,2
0,11677,37,728,5,15,80,1,18,2,2,2,1,2,4,1,3
0,19100,35,1315,7,10,71,22,18,7,7,6,2,2,2,2,4
0,19191,38,322,8,8,44,7,24,1,0,3,1,7,1,1,4
0,26767,26,1479,6,6,84,1,20,1,5,6,3,4,2,3,3
0,15815,50,797,10,28,96,4,14,3,4,4,1,6,2,1,3
0,21016,53,1070,5,21,45,3,16,3,3,5,3,3,3,3,3
0,24532,42,635,20,20,99,1,25,1,16,3,2,6,3,2,3
0,20260,29,442,10,10,44,2,18,1,7,3,2,9,4,2,3
0,15972,55,147,10,12,37,20,19,3,7,4,2,8,4,2,3
0,22722,26,496,5,5,60,11,13,1,3,3,1,3,1,1,3
0,15881,37,1372,17,17,42,1,12,1,12,3,4,7,4,4,3
1,19920,44,920,1,19,43,24,22,3,0,0,4,0,3,4,3
0,18899,38,688,2,10,82,23,14,9,2,2,4,2,4,4,3
1,14180,26,1449,3,5,45,16,13,2,2,2,1,2,2,1,3
0,4488,28,1117,5,5,66,8,21,1,3,3,4,2,4,4,3
0,25594,49,636,3,22,35,10,11,9,2,4,3,2,1,3,3
0,26285,36,506,8,10,30,3,12,4,0,2,3,7,2,3,3
0,3909,31,444,2,2,84,5,11,1,2,5,4,2,2,4,3
1,8450,26,950,8,8,48,4,12,1,7,0,4,4,4,4,2
0,11411,37,889,4,4,53,9,12,1,2,3,2,2,4,2,3
0,14864,42,555,20,23,77,26,14,5,4,2,3,8,2,3,3
1,25233,18,230,0,0,54,3,13,1,0,2,3,0,3,3,3
0,5100,35,1232,11,12,96,16,15,0,9,3,3,9,2,3,3
0,7122,36,566,1,4,81,18,18,4,0,2,3,0,4,3,4
0,16321,51,1302,4,13,84,2,18,5,1,3,4,2,2,4,1
0,15896,41,334,22,22,88,2,19,1,10,2,4,4,2,4,3
0,9724,18,812,0,0,69,10,12,1,0,2,4,0,3,4,2
0,4824,28,1476,8,9,68,16,19,0,3,2,2,7,1,2,4
0,12241,31,218,8,10,100,7,11,4,7,3,2,7,4,2,4
0,10942,39,1132,18,19,48,1,17,0,10,5,3,7,4,3,4
0,6927,36,1105,9,11,47,24,15,7,8,3,2,8,2,2,3
0,16985,32,906,13,13,91,7,14,1,8,3,4,8,3,4,2
0,26707,38,849,10,19,81,25,17,3,8,2,1,1,2,1,2
0,17056,58,390,5,12,32,1,13,2,3,2,4,2,3,4,1
0,10077,31,691,5,6,86,5,12,0,2,4,3,3,4,3,3
0,17822,31,106,2,9,62,2,12,3,2,1,1,0,1,1,2
0,20308,45,1249,24,24,97,7,18,1,9,2,1,11,1,1,3
0,7747,31,192,2,3,32,2,18,0,2,2,3,2,4,3,3
0,23364,33,553,10,12,74,5,11,6,6,2,4,8,2,4,3
0,5355,39,117,21,21,99,10,14,1,9,3,3,10,1,3,3
0,10675,43,185,8,9,33,10,19,0,7,5,3,7,4,3,3
0,17810,49,1091,7,25,90,1,12,7,1,2,3,7,3,3,2
1,17747,52,723,8,11,85,8,15,2,2,3,3,7,2,3,2
0,20938,27,1220,4,4,85,5,12,1,3,2,3,2,2,3,3
0,24624,32,588,13,13,65,8,11,1,12,2,3,9,2,3,2
0,5242,27,1377,5,5,74,2,11,1,4,3,4,4,3,4,3
0,7143,31,691,7,13,73,7,12,4,7,3,4,7,4,4,3
0,10557,32,1018,7,10,74,2,16,7,7,0,1,7,4,1,4
1,24737,28,1157,3,5,84,2,13,5,2,4,1,2,4,1,1
0,11934,30,1275,10,11,64,28,13,1,8,2,4,9,4,4,3
0,14034,31,798,10,10,48,7,24,1,9,2,3,9,3,3,2
0,21141,39,672,21,21,54,7,15,1,9,2,3,3,4,3,2
1,17778,39,1162,1,12,41,3,18,4,0,3,4,0,3,4,3
0,4317,33,508,7,9,46,10,14,3,7,6,2,1,4,2,2
0,16375,47,1482,3,21,42,5,11,4,2,2,4,1,3,4,3
0,6227,43,559,9,9,82,10,11,1,7,3,3,0,3,3,2
0,22107,27,210,5,6,73,1,13,0,4,0,3,4,2,3,3
0,16885,54,928,4,20,31,20,12,3,3,4,4,3,3,4,3
0,9262,43,1001,1,10,43,7,16,8,0,1,3,0,1,3,3
0,9278,45,549,10,12,75,8,14,9,9,3,4,8,4,4,3
0,13273,40,1124,4,6,57,1,22,2,3,2,2,2,4,2,1
1,4759,29,318,7,7,77,8,11,1,7,4,2,7,1,2,1
0,7621,29,738,3,4,30,9,17,0,2,2,2,2,4,2,2
0,5431,30,570,10,10,30,5,13,1,9,2,4,2,3,4,2
0,3415,27,1130,8,8,56,8,18,1,7,3,2,7,2,2,3
0,23177,37,1192,6,8,61,5,16,7,2,2,4,4,4,4,3
0,15682,38,343,11,12,92,15,14,0,10,3,3,9,4,3,2
0,25713,31,1232,11,11,39,7,14,1,9,2,3,10,4,3,3
0,11866,29,144,7,7,39,10,14,1,7,2,4,7,2,4,2
0,18264,35,1296,16,17,62,5,13,0,6,5,3,13,2,3,3
0,16092,23,1309,4,4,83,26,12,1,2,2,3,2,4,3,3
0,10110,41,483,5,8,95,6,15,6,4,3,4,2,2,4,2
0,25751,47,1309,0,5,99,4,19,3,0,3,2,0,3,2,3
0,15901,42,810,1,16,44,23,14,2,0,2,1,0,4,1,3
0,16928,29,746,4,4,61,2,14,1,3,3,4,2,3,4,3
0,24017,42,544,3,4,52,2,11,0,2,5,3,0,3,3,3
0,3956,32,1062,8,8,75,2,13,1,0,4,3,7,2,3,3
0,23978,48,530,0,15,91,29,21,3,0,3,1,0,3,1,3
0,17001,37,1319,7,13,51,6,13,4,7,2,3,7,1,3,4
0,6069,30,641,2,4,85,25,12,7,2,2,4,2,3,4,3
0,20156,26,933,8,8,57,1,17,1,7,3,3,7,3,3,3
0,17078,42,1332,1,14,98,2,23,3,0,6,1,0,4,1,2
1,9150,21,756,3,3,99,1,11,1,2,3,1,2,2,1,2
0,15276,36,845,1,7,45,1,15,4,0,6,4,0,4,4,3
0,7246,36,541,13,16,48,3,11,4,9,2,1,12,4,1,2
0,2967,57,593,3,15,88,1,11,2,2,2,4,2,3,4,3
0,22495,40,1171,7,10,46,10,13,3,7,3,4,7,3,4,4
0,2851,21,895,3,3,39,9,24,1,2,3,1,2,4,1,3
1,9150,33,350,1,1,34,5,13,1,0,2,4,0,3,4,3
0,17663,37,921,5,17,98,10,20,6,4,3,3,3,1,3,3
0,16044,46,1144,1,7,30,7,14,2,0,2,3,0,3,3,3
1,9558,41,143,8,8,56,4,18,1,7,5,1,7,2,1,3
0,2755,50,1046,4,20,100,10,15,6,3,2,4,3,4,4,2
1,6110,40,575,6,8,68,22,12,2,4,6,3,0,3,3,2
0,7551,31,408,2,3,42,9,16,0,2,5,3,2,2,3,2
1,25422,21,156,1,1,90,12,15,1,0,0,3,0,2,3,4
0,18168,29,1283,3,6,54,23,16,9,2,4,4,2,4,4,3
0,19394,35,755,1,10,97,9,19,9,1,5,3,0,2,3,2
0,17881,27,1469,5,5,82,1,11,1,2,2,4,4,2,4,3
0,20750,28,304,7,7,92,9,16,1,5,1,2,7,4,2,3
0,12066,49,1261,5,26,31,7,24,8,2,2,2,0,3,2,2
0,14862,51,1178,7,18,87,14,11,4,7,2,3,7,4,3,3
0,11868,36,329,2,6,96,2,13,4,2,3,4,2,3,4,3
1,4652,34,1362,5,9,67,19,13,8,2,3,1,4,4,1,4
0,23258,55,1311,5,30,97,2,13,2,4,2,3,2,4,3,3
0,5915,24,1371,5,5,77,10,12,1,2,2,4,3,3,4,3
0,17434,30,202,1,1,72,2,18,1,0,3,3,0,2,3,3
1,6582,26,575,6,7,73,3,22,0,4,2,3,4,1,3,3
0,24440,22,253,2,2,43,11,13,1,1,1,1,2,2,1,3
0,3809,36,164,10,10,61,2,13,1,9,2,2,0,3,2,2
1,3427,30,464,1,3,40,4,23,9,0,4,3,0,4,3,3
0,26914,37,1107,18,18,95,14,12,1,7,2,4,17,1,4,3
0,22553,40,759,5,8,46,2,12,7,4,5,4,3,2,4,3
0,20490,42,201,5,8,95,1,16,3,2,5,2,2,1,2,3
0,21123,37,1305,1,18,49,10,12,2,0,2,3,1,2,3,3
0,4345,43,982,25,25,59,12,11,1,10,3,1,9,2,1,2
0,13436,40,555,1,20,78,2,22,6,0,3,2,0,3,2,2
0,8509,54,821,4,24,86,5,11,4,2,4,1,2,1,1,3
0,12740,34,1381,3,6,72,4,15,9,2,3,3,2,3,3,3
0,4156,31,480,13,13,31,7,12,1,10,5,2,12,1,2,3
0,15238,43,313,3,8,61,21,20,7,2,1,4,2,4,4,3
0,2227,43,1473,5,8,74,8,14,4,2,3,3,2,3,3,3
0,12090,25,891,5,5,99,4,11,1,4,3,2,3,4,2,2
0,23866,37,1063,13,15,72,25,15,3,11,2,2,7,3,2,3
0,16193,31,329,4,4,98,1,12,1,2,3,4,2,1,4,2
0,8213,39,1218,21,21,52,1,14,1,8,3,2,6,3,2,3
0,18256,56,906,7,36,86,6,11,9,7,0,3,7,1,3,4
0,19558,30,1082,5,6,83,12,11,0,4,6,2,4,3,2,3
0,19566,41,645,10,10,49,1,16,1,7,2,2,7,1,2,4
0,13535,28,1300,10,10,79,17,12,1,0,2,3,8,1,3,3
1,9396,25,688,2,6,91,3,13,5,2,5,1,2,1,1,3
0,19609,52,319,5,28,39,3,14,2,4,4,4,4,3,4,2
0,9655,45,192,2,8,69,10,21,3,2,3,1,2,4,1,3
0,10310,52,1490,5,31,30,4,13,2,2,2,4,4,4,4,3
0,12932,42,532,5,19,92,29,11,2,4,3,1,2,3,1,3
0,24793,30,317,5,11,43,2,20,2,4,2,3,2,4,3,1
0,3854,60,422,29,33,41,7,11,5,8,5,1,10,1,1,3
0,26314,46,1485,10,19,87,18,14,2,7,5,3,8,3,3,3
0,4386,42,1368,6,7,88,28,11,0,5,4,4,4,4,4,2
1,21972,24,1448,5,6,62,1,16,1,3,4,1,4,2,1,3
1,12253,34,296,2,3,33,6,16,0,2,3,4,0,3,4,1
0,12106,38,1490,1,1,42,2,23,1,0,3,4,0,4,4,3
0,13022,40,1398,20,21,79,2,14,0,15,2,3,12,3,3,3
0,3032,26,1349,3,3,90,23,22,1,2,3,1,2,4,1,3
0,16734,30,1400,5,9,53,3,15,4,3,3,3,4,4,3,3
0,21526,29,986,10,10,93,3,18,1,2,2,2,7,3,2,2
1,18300,29,408,2,6,71,25,16,5,2,2,3,1,2,3,2
1,18437,19,489,1,1,52,2,12,1,0,3,1,0,4,1,2
0,2890,30,1398,9,10,69,22,11,0,8,3,3,8,1,3,3
0,22102,57,210,1,32,56,29,12,3,0,3,1,0,4,1,2
0,9314,50,1099,27,28,88,29,15,0,10,2,2,7,3,2,2
0,7181,30,1116,11,12,49,2,14,0,7,2,3,7,4,3,3
0,2845,60,1499,18,22,80,28,19,4,13,5,3,11,1,3,2
0,7389,47,983,5,20,65,2,13,5,0,2,1,4,4,1,3
0,2288,46,1009,3,26,51,2,13,6,2,2,1,1,3,1,3
0,19225,35,144,5,6,46,22,15,0,4,2,4,3,3,4,1
0,23428,54,548,1,19,42,8,11,7,0,3,3,0,3,3,3
0,8416,34,1303,7,14,62,2,12,3,3,3,4,7,3,4,2
0,11563,46,1125,3,15,94,10,19,2,2,3,3,2,4,3,2
0,14394,31,1274,13,13,33,9,25,1,8,6,3,8,2,3,3
1,24619,33,1277,7,15,56,15,12,7,6,2,2,7,3,2,3
1,6705,33,587,4,8,38,10,13,7,3,2,1,3,4,1,1
0,18398,30,413,3,4,57,7,14,0,2,3,4,2,2,4,3
0,14295,35,1276,8,10,72,16,12,4,7,2,4,0,3,4,3
1,22908,31,534,1,12,66,20,12,3,0,2,1,0,3,1,3
1,11533,34,988,3,11,43,23,15,9,2,2,2,2,1,2,3
0,9260,42,1474,2,8,97,5,17,4,2,4,2,0,3,2,3
0,15318,36,635,10,10,32,10,14,1,3,3,2,7,4,2,3
1,9129,22,1368,2,4,99,4,16,5,2,3,3,2,3,3,2
0,19658,48,163,9,14,37,2,14,2,7,2,2,7,4,2,3
0,9873,55,1117,10,37,83,18,23,3,9,2,1,7,2,1,3
0,13430,41,267,14,16,56,10,14,7,3,3,4,10,4,4,3
0,18659,35,619,11,15,85,1,11,9,9,2,2,9,3,2,3
0,20364,40,302,20,22,75,6,15,7,6,3,2,13,3,2,3
0,17872,39,443,8,8,48,8,11,1,3,3,3,7,3,3,3
0,8346,31,828,6,10,77,2,13,4,5,2,2,5,4,2,3
0,6950,42,319,10,10,56,24,21,1,9,5,4,8,1,4,3
0,16177,45,561,8,9,61,2,19,0,7,3,4,7,2,4,3
1,22808,26,426,7,8,58,17,11,0,7,2,2,0,3,2,3
0,22645,29,232,3,8,34,19,12,4,2,2,4,2,4,4,3
0,22578,33,922,6,10,95,1,19,4,1,2,1,5,3,1,4
0,25291,31,688,5,10,44,7,21,9,4,3,3,1,4,3,2
1,8059,18,1306,0,0,69,5,14,1,0,3,2,0,2,2,3
0,11373,40,1094,1,20,58,28,15,3,0,2,3,1,1,3,1
0,2112,41,509,8,10,62,2,17,2,7,3,1,7,3,1,2
0,4267,26,775,0,8,45,29,12,5,0,5,1,0,3,1,3
0,6698,35,195,5,5,80,1,16,1,4,3,1,3,3,1,3
0,19921,34,258,10,10,74,21,12,1,7,3,4,7,4,4,4
1,23213,26,471,1,1,66,24,18,1,0,3,3,0,4,3,1
0,23848,37,799,6,12,59,1,17,4,5,3,2,2,4,2,3
0,8984,46,1034,2,28,86,18,11,5,2,3,1,2,3,1,3
0,5626,41,1276,18,22,91,2,16,7,16,2,2,8,1,2,3
0,24666,37,142,9,9,69,9,13,1,5,6,1,7,2,1,3
0,22087,52,956,10,18,78,6,12,3,9,3,4,9,1,4,3
1,23914,32,1474,4,6,60,11,12,8,2,2,4,2,3,4,4
0,5530,24,535,2,3,38,24,13,0,2,3,4,1,4,4,3
0,22174,38,1495,1,18,76,10,19,3,0,4,3,0,3,3,3
0,15701,37,446,6,8,65,1,12,6,5,2,2,3,2,2,3
0,2125,49,1245,31,31,58,18,17,1,9,5,4,9,3,4,2
0,21630,24,691,6,6,89,23,11,1,5,3,2,4,4,2,4
0,7428,26,703,5,6,66,28,20,1,3,5,1,4,2,1,3
0,9100,24,823,1,1,94,17,21,1,0,2,4,0,2,4,2
0,7999,50,1246,32,32,99,3,11,1,5,2,1,7,2,1,3
0,26376,25,622,7,7,40,13,11,1,4,1,2,6,3,2,3
1,14168,24,1287,6,6,55,7,16,1,3,4,1,2,3,1,3
1,14470,30,448,1,1,74,12,18,1,0,2,2,0,1,2,2
0,22794,34,254,6,6,83,1,13,1,5,3,2,3,4,2,2
1,11512,31,1365,3,9,46,13,17,2,1,2,2,2,1,2,3
0,14004,35,538,3,9,54,25,14,4,2,3,1,2,4,1,2
0,6219,31,525,7,13,66,6,22,4,7,4,1,7,4,1,4
0,5013,27,798,5,6,66,6,12,0,3,5,1,3,3,1,2
0,3010,37,558,3,17,75,2,11,4,0,3,4,0,3,4,3
0,11757,20,959,1,1,83,1,13,1,0,0,4,0,2,4,2
0,5718,42,622,10,10,81,2,13,1,2,4,3,2,4,3,3
0,2671,43,782,1,21,50,6,14,4,0,3,2,0,4,2,2
0,14561,38,362,0,8,43,1,17,3,0,3,3,0,1,3,3
0,19627,43,1001,8,10,72,9,13,3,7,3,4,7,3,4,3
0,17997,48,1236,3,21,40,1,11,7,2,3,4,2,1,4,2
0,26894,44,1112,2,10,50,1,11,4,2,1,1,2,3,1,2
0,2912,34,204,8,8,31,14,18,1,2,3,3,6,3,3,3
1,16346,27,1420,4,5,85,2,11,0,3,3,3,2,1,3,3
0,24444,21,1343,3,3,49,22,11,1,2,2,3,2,3,3,3
0,9358,44,1315,2,26,35,3,12,4,2,2,4,1,4,4,3
0,12145,22,604,2,3,69,6,20,0,2,3,1,2,3,1,3
0,20431,33,1216,5,6,39,8,12,0,0,3,3,2,3,3,3
0,18089,32,646,6,6,92,9,12,1,4,2,1,5,4,1,3
0,22653,30,160,1,1,71,3,20,1,0,2,3,0,3,3,3
0,7507,53,238,14,18,34,1,20,7,7,2,4,10,1,4,3
0,7660,34,1397,10,10,42,1,12,1,9,4,2,8,4,2,3
1,5630,45,306,1,5,100,26,14,2,1,4,1,0,1,1,3
0,17759,26,991,3,3,71,6,13,1,2,2,3,2,4,3,3
0,9606,37,482,10,10,36,3,15,1,7,2,3,8,3,3,3
0,3487,29,1176,6,6,62,3,14,1,0,5,2,2,3,2,3
0,19368,35,1017,17,17,82,6,13,1,11,3,2,8,4,2,1
0,5335,33,1296,13,15,30,6,23,3,11,2,3,7,4,3,3
0,6729,54,397,9,16,88,19,15,2,7,1,3,1,2,3,3
0,13934,36,913,3,13,48,9,11,2,2,2,2,2,2,2,2
0,15174,27,1115,4,5,54,3,13,0,2,0,1,1,4,1,2
1,26999,20,1362,1,1,32,10,11,1,0,5,4,1,3,4,3
1,3164,33,1076,10,10,70,3,11,1,8,3,1,7,1,1,3
0,16900,35,727,1,1,41,3,18,1,0,3,3,0,3,3,2
0,8544,23,885,3,5,58,4,16,2,2,3,1,2,1,1,4
0,15678,25,810,3,4,57,8,22,0,2,4,4,2,2,4,4
0,7791,38,243,7,8,46,7,20,0,7,2,4,5,4,4,2
0,18959,29,806,10,10,76,1,18,1,7,5,2,8,4,2,1
0,18597,48,817,2,12,56,2,12,3,2,3,2,2,2,2,4
0,16673,27,1410,6,6,71,3,20,1,5,3,4,4,4,4,4
0,15232,37,1225,1,4,80,10,17,3,0,2,4,0,4,4,4
0,3297,50,1207,20,20,74,28,11,1,8,3,4,8,3,4,4
0,17654,34,1442,8,9,46,9,14,1,7,3,4,7,2,4,2
1,24785,24,693,2,4,65,3,14,9,2,3,1,0,3,1,3
0,20978,39,408,20,20,80,2,11,1,7,4,4,10,3,4,2
0,21703,32,929,10,10,55,10,12,1,7,2,4,8,4,4,3
1,23452,50,562,4,18,50,8,14,3,3,4,2,3,3,2,3
0,19383,38,827,9,10,33,1,13,0,7,4,2,8,4,2,4
0,6009,27,608,9,9,68,1,11,1,7,3,3,7,1,3,3
0,19373,32,1018,7,10,39,3,15,3,7,6,3,7,4,3,3
0,11825,47,703,7,20,42,14,12,2,7,2,4,7,1,4,3
0,23772,40,580,18,20,48,5,21,5,13,2,4,12,1,4,2
0,13514,53,970,5,32,59,7,19,3,1,3,3,3,3,3,4
0,8861,41,427,21,23,73,10,15,3,6,2,2,6,4,2,2
0,11924,60,1179,2,10,84,16,14,8,2,1,1,2,1,1,3
0,4809,27,294,9,9,32,10,21,1,7,4,4,7,1,4,3
0,19562,41,314,22,22,59,1,12,1,7,3,4,10,3,4,2
0,9983,50,316,2,4,54,8,15,7,2,2,4,2,2,4,3
1,3872,28,654,7,10,67,1,13,7,7,4,1,7,2,1,1
0,20335,36,427,8,10,63,8,14,9,7,2,1,5,1,1,4
0,15397,38,168,1,10,81,1,14,4,0,4,3,0,3,3,3
0,2104,44,381,5,9,49,24,14,2,2,5,1,4,3,1,1
0,10225,47,217,22,28,49,3,12,9,2,2,4,13,3,4,3
0,25275,30,501,8,10,99,27,23,7,7,2,3,7,4,3,3
0,2755,29,1396,1,1,99,10,11,1,0,6,3,0,3,3,3
1,20366,42,933,2,7,57,19,12,6,2,2,3,2,3,3,4
0,23683,43,775,2,7,47,15,18,3,2,5,4,2,4,4,2
0,7360,34,970,5,10,96,8,11,3,1,2,2,3,3,2,3
0,4344,23,650,4,5,37,9,14,1,3,2,2,2,1,2,3
0,18767,39,141,8,12,44,3,15,9,3,3,3,6,2,3,4
0,20420,56,832,10,30,81,9,11,7,7,1,3,1,4,3,3
0,22929,40,804,4,5,86,2,20,0,2,2,4,3,4,4,2
0,23398,27,975,7,9,55,7,19,8,6,2,4,7,1,4,2
0,17967,29,1090,2,2,83,10,14,1,2,2,4,2,2,4,3
0,10919,53,346,2,19,86,6,17,2,2,4,4,2,4,4,3
0,4761,35,1225,1,16,61,2,11,2,0,2,4,0,1,4,3
0,21146,32,430,10,10,80,24,15,1,8,2,1,7,4,1,3
0,20471,38,268,1,6,92,2,13,6,0,0,4,1,3,4,3
0,4187,34,167,0,7,32,8,14,3,0,3,2,0,1,2,3
0,10084,52,621,34,34,31,3,11,1,6,3,3,16,1,3,2
1,5207,33,527,10,10,63,1,13,1,9,2,4,8,4,4,3
0,22807,25,883,6,6,32,26,23,1,5,5,3,4,4,3,3
0,12388,45,954,8,9,46,2,13,0,7,3,2,1,3,2,1
0,19630,23,310,2,2,79,10,18,1,2,3,1,2,3,1,4
1,10339,47,719,5,8,77,27,12,4,4,2,2,3,3,2,4
0,18686,34,304,6,6,60,2,22,1,5,5,4,4,4,4,3
1,21199,55,725,5,24,78,2,13,5,2,2,4,4,1,4,3
0,14229,36,1434,10,10,76,8,15,1,7,1,1,9,1,1,2
0,26589,52,715,4,5,41,19,18,0,3,3,4,2,4,4,3
0,5288,26,575,2,5,71,1,14,3,2,2,1,0,4,1,1
0,25549,29,657,8,11,66,27,12,4,7,3,2,1,3,2,3
1,3064,26,1146,4,6,38,8,17,6,3,2,4,2,1,4,2
0,13551,34,182,4,10,72,1,16,2,2,2,2,3,4,2,4
0,22670,54,376,5,9,95,19,11,9,3,4,4,4,1,4,3
0,24008,27,829,4,5,84,8,19,0,2,3,3,1,4,3,3
0,19905,37,571,5,6,82,10,13,0,3,3,4,3,1,4,3
0,26085,38,240,15,17,75,2,12,6,7,2,1,12,1,1,4
0,7530,34,121,6,6,86,2,11,1,5,3,3,3,1,3,2
0,20317,35,384,3,3,72,8,16,1,2,1,1,2,4,1,3
0,24375,30,921,2,7,38,1,21,3,2,2,4,2,3,4,1
0,9931,40,791,8,8,38,2,24,1,7,2,3,7,2,3,4
0,13305,34,1111,3,6,93,8,17,5,2,1,3,2,1,3,3
0,16225,42,570,24,24,66,8,13,1,7,4,2,9,4,2,3
1,3445,23,1243,0,1,63,6,21,1,0,2,3,0,1,3,4
0,26551,24,1092,1,1,60,9,11,1,0,4,3,0,2,3,2
0,21821,52,1325,5,9,82,11,20,8,2,3,4,4,3,4,3
0,6881,50,691,4,30,64,2,16,5,3,3,3,3,3,3,3
1,6689,29,805,1,1,36,1,11,1,0,1,2,0,1,2,2
0,25995,33,213,13,14,49,7,11,0,9,3,3,7,3,3,3
1,26507,33,118,3,6,69,16,15,5,2,3,1,2,1,1,3
0,12982,47,202,26,26,33,2,11,1,14,3,3,0,4,3,3
0,23361,36,676,9,10,35,1,15,0,7,2,3,5,2,3,3
0,23779,29,1252,10,10,81,23,24,1,7,3,3,7,3,3,4
1,25761,58,286,31,40,31,2,12,7,15,2,4,8,2,4,3
0,13301,35,1258,2,7,40,1,13,3,2,0,4,2,3,4,4
0,4051,42,932,4,8,43,1,13,9,3,4,4,2,4,4,2
1,16374,28,890,2,5,46,2,17,6,2,3,3,1,3,3,3
0,25527,36,1041,5,8,36,13,13,4,2,2,3,4,2,3,3
0,19124,32,859,14,14,98,4,12,1,13,3,3,8,3,3,2
0,11983,40,720,1,10,51,16,14,6,0,6,1,0,3,1,2
0,20234,30,946,0,12,52,2,24,5,0,4,3,0,4,3,2
0,6153,45,252,1,1,95,2,14,1,0,3,2,0,3,2,2
0,11806,42,933,9,10,98,29,13,1,8,3,2,8,2,2,3
0,4284,38,471,4,13,45,12,15,2,3,3,1,2,1,1,2
0,8306,34,702,5,6,100,16,16,1,2,3,3,3,4,3,2
1,5860,49,1184,9,9,43,11,18,1,8,3,3,7,4,3,3
1,21519,55,436,9,12,37,2,16,4,7,3,3,3,4,3,3
0,5200,43,589,4,22,94,14,24,6,1,3,2,0,1,2,3
0,8842,27,269,9,9,42,5,16,1,8,3,3,8,4,3,2
0,18869,35,950,8,17,59,7,21,3,5,3,3,6,3,3,3
0,3698,28,760,8,8,81,2,20,1,7,2,2,5,2,2,3
0,2243,34,829,3,4,88,3,19,0,2,1,3,2,4,3,3
1,20898,26,887,8,8,88,5,14,1,7,2,3,7,3,3,2
0,16571,27,443,0,0,50,3,11,1,0,6,4,0,4,4,3
0,5594,51,1318,20,29,66,26,14,2,6,2,1,17,3,1,3
0,5197,44,625,5,10,50,4,12,9,2,2,4,3,2,4,3
0,21632,25,180,4,6,65,2,13,7,3,3,1,1,1,1,4
0,21816,33,586,9,9,48,1,22,1,8,5,1,8,1,1,4
0,17852,35,1343,6,6,53,27,11,1,5,3,3,1,1,3,2
0,2823,36,928,18,18,56,1,14,1,14,1,2,11,4,2,3
0,9250,32,117,5,8,73,13,11,2,2,3,2,3,4,2,3
0,2373,30,1012,5,10,75,5,12,9,4,3,2,3,4,2,2
0,20715,53,661,5,35,78,7,18,7,2,3,1,4,4,1,2
0,19239,45,930,5,18,74,9,12,4,4,2,4,2,1,4,3
0,22162,32,638,5,9,91,8,12,5,3,3,3,3,3,3,4
0,19028,52,890,9,31,81,25,22,3,8,3,3,0,4,3,2
0,24558,37,342,1,9,66,16,19,4,0,2,4,0,3,4,2
0,23965,28,1169,5,6,63,8,13,1,1,6,2,4,4,2,2
0,19146,22,1230,2,4,33,1,22,6,2,2,4,2,4,4,2
0,5044,44,986,3,10,62,8,24,2,2,2,1,2,4,1,4
0,9068,42,1271,2,8,35,2,14,5,1,2,2,2,4,2,3
0,8635,36,1278,5,6,77,8,21,0,4,3,1,3,1,1,2
0,14363,25,141,5,5,98,3,18,1,3,3,3,3,1,3,3
0,23457,35,607,17,17,66,9,20,1,14,2,4,15,3,4,2
1,16612,35,130,10,10,96,25,19,1,2,3,4,8,2,4,3
0,9148,32,300,3,4,61,1,12,0,0,2,4,2,4,4,3
0,18154,25,583,5,5,87,4,12,1,2,1,3,3,1,3,2
0,10554,49,1418,4,7,36,1,16,2,2,2,3,2,1,3,3
0,10778,24,1269,5,6,46,4,17,0,2,2,1,4,4,1,2
0,8891,32,379,10,10,48,5,14,1,8,3,2,3,2,2,3
0,12102,38,395,2,3,98,9,19,0,2,3,2,2,2,2,2
0,23726,42,1265,5,17,95,3,13,2,3,1,3,3,4,3,4
0,14871,31,1222,6,8,48,11,19,3,4,2,4,2,4,4,3
1,23522,29,341,3,5,48,1,19,6,2,3,2,2,3,2,2
0,22789,53,868,2,28,73,8,14,5,0,3,1,2,4,1,3
0,9129,35,672,13,16,78,25,16,3,10,2,4,8,2,4,2
0,21222,37,1231,5,10,54,21,15,5,4,3,3,0,4,3,3
0,20206,53,102,12,33,72,23,18,6,9,0,4,8,4,4,3
0,21782,43,422,5,12,33,1,13,4,2,2,4,2,4,4,3
0,17783,47,249,7,8,35,2,22,0,6,2,3,7,4,3,3
0,4814,37,1252,10,10,32,19,13,1,0,2,1,9,2,1,3
0,4544,50,881,31,31,98,2,11,1,6,3,1,7,1,1,3
0,7790,39,1383,5,13,42,2,11,8,4,2,4,4,4,4,2
0,22650,33,1075,4,7,57,3,11,3,3,4,4,3,2,4,3
1,18016,32,374,1,1,87,25,24,1,0,2,1,1,4,1,3
0,6054,29,1086,4,8,62,7,14,6,3,5,1,3,4,1,2
0,7508,44,661,8,8,61,9,13,1,7,0,2,1,1,2,3
0,24252,28,821,4,4,98,5,14,1,2,3,1,2,4,1,3
1,13384,58,781,1,3,57,2,14,9,0,3,4,0,4,4,2
0,23814,43,177,1,4,55,8,21,4,0,2,1,0,2,1,3
1,22052,20,500,2,2,49,2,13,1,2,3,3,2,3,3,2
1,8870,21,1427,1,1,65,18,19,1,0,3,4,0,4,4,3
0,4821,36,1425,16,17,68,14,17,0,8,2,3,11,4,3,3
0,13137,47,1454,3,3,65,2,18,1,2,3,4,2,4,4,2
1,10022,22,617,3,4,34,3,19,0,2,3,2,2,3,2,3
1,17725,41,1085,7,10,57,2,13,4,7,1,2,0,4,2,1
0,9834,28,995,2,6,77,9,18,5,2,2,3,2,3,3,3
1,4303,39,1122,2,8,70,6,21,7,2,2,4,2,1,4,3
0,17808,27,618,1,1,76,4,19,1,1,2,2,0,3,2,3
0,6896,34,546,1,1,83,10,14,1,0,3,2,0,2,2,3
0,7824,42,462,5,10,68,14,17,7,4,6,3,3,3,3,2
0,3339,33,1198,3,6,100,1,11,3,2,1,3,2,1,3,2
0,9255,58,1272,6,24,37,5,13,2,0,3,3,4,2,3,2
0,11737,31,154,7,13,41,7,15,3,7,2,2,2,3,2,2
0,19170,35,1137,10,10,51,21,25,1,6,2,4,7,4,4,3
0,22477,49,527,26,29,51,8,11,4,9,3,1,7,2,1,3
0,5543,48,1469,0,13,51,20,17,4,0,2,4,0,3,4,3
0,24406,31,1188,9,9,45,20,13,1,8,2,4,0,3,4,3
0,23293,36,188,6,8,65,7,18,2,2,6,2,1,4,2,3
0,16292,38,1333,15,15,80,1,13,1,12,3,4,11,1,4,3
0,3974,32,1184,3,5,70,1,20,6,0,3,3,2,2,3,2
1,18798,25,867,1,1,36,19,18,1,0,2,3,0,2,3,2
0,20652,40,658,1,11,67,10,12,2,0,2,1,0,2,1,2
0,11148,26,1283,7,7,52,1,12,1,7,2,3,7,1,3,2
0,3119,41,263,18,20,59,6,13,2,13,3,4,17,1,4,3
0,12287,36,938,11,16,79,2,21,4,8,6,3,9,3,3,3
1,9947,19,419,1,1,37,21,13,1,0,3,4,0,2,4,2
1,13008,20,129,1,1,84,4,19,1,0,2,1,0,1,1,3
0,17369,31,616,9,10,41,12,11,0,7,2,4,5,4,4,3
0,25063,40,1469,1,3,35,9,14,8,1,2,4,0,2,4,3
0,13554,32,498,8,8,93,3,12,1,7,2,3,3,1,3,3
1,5518,36,530,16,16,51,3,11,1,7,6,3,7,4,3,2
0,12291,33,1069,5,6,42,1,14,0,0,3,2,4,4,2,2
1,14922,37,625,14,17,46,1,11,5,1,2,1,7,3,1,2
0,23163,45,805,9,9,57,4,12,1,7,5,3,8,2,3,3
0,18203,29,1404,3,3,84,20,15,1,1,5,3,2,4,3,3
0,6179,35,1219,5,5,86,18,16,1,2,3,3,0,3,3,3
0,13829,52,1053,9,26,70,1,15,2,8,2,4,8,4,4,3
1,26227,58,289,1,7,51,2,24,4,0,4,4,0,3,4,3
0,13938,53,1376,17,22,45,2,13,6,13,3,3,2,3,3,3
0,9977,30,231,8,10,62,8,11,5,4,2,3,7,3,3,3
0,19899,38,152,5,6,85,10,13,1,3,1,3,3,4,3,3
0,6812,35,882,10,12,92,3,13,6,9,2,4,8,4,4,3
0,2560,39,903,8,9,41,2,18,0,7,3,1,7,3,1,4
1,17071,40,1479,1,22,100,24,16,4,0,2,2,0,2,2,4
0,6759,47,1379,19,20,64,16,19,1,10,3,3,7,3,3,4
0,25952,36,1229,7,12,84,8,13,4,7,3,1,7,4,1,3
1,10322,31,335,3,4,46,9,22,0,2,0,3,2,1,3,2
0,20489,33,722,10,10,38,17,11,1,8,2,4,0,3,4,3
1,11479,29,906,0,3,92,10,20,6,0,5,4,0,1,4,2
0,17241,33,461,3,5,53,13,18,3,2,4,2,2,4,2,3
0,11005,45,974,5,8,91,1,14,3,3,2,4,2,4,4,3
0,6615,50,1126,5,32,66,1,22,9,4,1,4,3,4,4,3
0,20161,33,827,6,6,84,1,13,1,5,2,3,2,2,3,4
0,3735,41,840,18,21,64,9,17,2,16,2,1,11,3,1,3
0,12086,27,1134,2,4,37,16,14,9,2,2,3,2,2,3,3
0,14039,45,248,9,9,42,23,15,1,8,2,4,8,1,4,3
0,8571,47,955,9,9,83,4,17,1,0,0,4,7,4,4,3
1,11539,30,138,5,7,48,22,11,4,2,2,1,1,3,1,3
0,4161,50,939,12,22,95,24,18,3,11,2,4,5,3,4,3
0,12127,38,1391,2,3,66,10,17,0,1,0,3,2,3,3,3
0,24208,46,566,8,13,75,7,13,6,7,3,4,7,3,4,3
0,24117,24,1206,4,5,41,17,15,1,2,6,4,2,3,4,2
1,10074,35,622,4,5,39,14,24,1,2,2,3,2,2,3,2
0,11275,31,853,4,4,96,1,12,1,3,1,3,3,1,3,3
0,13493,18,287,0,0,73,5,15,1,0,2,2,0,4,2,3
0,13943,54,1441,10,22,56,17,11,8,7,2,3,8,3,3,3
0,6975,35,583,16,16,57,25,11,1,10,3,3,1,3,3,3
0,17802,30,153,8,9,73,8,12,0,7,4,2,7,1,2,4
1,18275,20,1097,1,1,98,11,15,1,0,2,4,0,1,4,2
1,25725,30,109,3,4,60,5,17,0,2,3,2,2,2,2,3
0,3334,26,1066,8,8,32,2,12,1,7,2,4,3,4,4,4
0,6881,22,217,4,4,94,8,15,1,3,3,2,1,1,2,1
0,13119,48,277,2,19,97,6,13,2,2,0,1,2,3,1,2
0,22245,48,1355,15,27,78,4,14,7,11,3,3,8,3,3,2
0,23371,41,549,2,8,42,7,14,6,2,6,4,1,3,4,3
0,7060,39,466,21,21,65,1,16,1,6,3,4,8,4,4,2
0,4658,27,1055,3,4,47,2,18,0,2,2,1,2,4,1,3
0,9541,35,802,3,3,45,10,20,1,2,4,2,2,4,2,3
0,7770,42,265,1,21,90,5,13,6,0,3,4,0,3,4,3
0,20165,50,804,1,8,64,9,18,4,0,5,1,0,4,1,3
0,21829,59,715,5,30,69,2,13,3,3,4,3,3,4,3,2
1,14382,37,1141,1,15,61,11,15,5,0,2,1,0,2,1,1
0,12992,55,135,8,17,62,18,14,3,7,3,3,7,2,3,3
0,20284,41,247,21,21,55,7,22,1,16,3,2,10,3,2,1
0,4981,38,1035,1,19,42,3,12,8,0,1,2,0,4,2,3
1,21813,26,265,2,7,79,29,18,8,2,6,2,2,1,2,1
1,25846,52,266,32,33,57,2,15,1,14,3,1,9,4,1,1
0,11737,44,1448,12,23,53,28,18,3,11,2,4,11,4,4,4
0,24920,50,145,18,19,95,1,12,0,7,3,4,13,3,4,3
1,8269,36,885,17,18,43,16,16,1,13,1,3,14,1,3,4
0,5083,39,945,21,21,82,22,13,1,6,2,4,8,1,4,3
0,21437,33,1038,2,3,88,8,19,0,2,2,2,2,4,2,2
0,5404,45,1234,9,26,90,11,13,3,3,4,4,1,4,4,3
0,11135,32,1109,8,10,69,29,12,9,7,2,4,7,3,4,3
0,12278,34,216,15,16,75,1,11,0,1,2,2,9,4,2,4
0,11038,59,1089,6,14,66,1,14,3,4,1,2,4,4,2,3
0,8318,45,788,6,6,36,24,16,1,3,3,2,4,2,2,3
0,23537,53,124,15,30,38,2,12,2,7,2,3,12,2,3,2
1,7858,36,660,1,9,81,15,14,7,0,3,1,0,3,1,3
1,15346,26,342,3,6,57,2,14,6,2,2,1,2,1,1,3
0,18410,34,1333,1,1,87,10,19,1,1,2,3,0,3,3,3
0,23384,28,1144,1,1,74,10,22,1,0,5,4,0,2,4,3
0,2997,38,1186,2,8,44,3,16,3,2,2,3,2,3,3,3
0,12853,50,1464,8,29,62,2,11,2,1,2,2,7,3,2,3
0,13848,37,124,4,8,35,3,15,3,3,3,4,1,2,4,3
0,22217,40,300,7,8,74,26,14,1,7,3,3,5,1,3,3
0,25265,26,921,5,5,66,1,13,1,3,5,1,3,3,1,2
0,21445,46,430,2,23,40,1,17,9,2,0,4,2,4,4,3
0,8392,54,1082,9,13,41,2,11,6,4,4,3,0,3,3,2
0,12154,56,1240,5,18,63,9,19,2,4,4,1,3,3,1,3
0,15669,36,796,14,15,51,12,11,0,8,2,4,8,4,4,2
0,17323,55,444,9,31,40,2,15,7,7,3,3,2,1,3,2
0,5268,43,415,1,18,79,25,13,5,0,5,3,0,4,3,2
1,17205,20,769,2,2,54,9,14,1,2,3,4,2,4,4,3
1,17258,21,1334,1,1,36,10,13,1,0,6,3,0,1,3,2
0,21029,46,1003,16,19,74,8,23,8,13,2,4,7,1,4,2
1,10332,51,1323,10,18,34,4,12,9,0,2,1,7,3,1,3
1,12355,28,1366,10,10,72,24,12,1,7,2,2,9,1,2,2
0,11141,26,192,5,6,59,1,16,1,3,2,1,3,1,1,2
0,9096,30,1176,6,7,85,20,15,0,2,1,3,2,1,3,3
0,18863,41,509,10,10,43,7,13,1,6,3,2,8,3,2,4
0,24608,38,330,19,20,65,17,18,0,9,4,3,9,3,3,2
0,26542,40,1492,11,14,61,20,20,4,10,6,1,1,4,1,3
0,5869,27,1277,3,3,87,8,19,1,2,4,1,2,3,1,1
0,15813,55,1091,3,23,65,2,18,3,2,4,4,2,2,4,3
0,7909,28,857,8,10,59,10,13,3,7,4,3,7,3,3,3
1,2326,44,1376,20,24,91,1,14,9,6,1,2,6,1,2,2
0,21214,33,654,3,9,34,5,15,4,2,2,4,2,4,4,2
1,10333,35,1204,8,9,86,4,22,0,7,2,4,7,1,4,3
1,3129,33,827,13,14,54,29,22,1,7,4,1,8,3,1,2
0,22482,28,895,4,4,50,15,16,1,2,5,1,2,3,1,3
0,22266,34,618,6,7,45,3,17,0,2,1,1,4,4,1,3
0,24223,37,309,1,8,88,10,14,2,0,5,4,0,4,4,2
1,4605,25,1219,7,7,32,4,15,1,7,3,4,6,4,4,3
1,19373,26,1330,1,1,37,21,20,1,1,0,1,0,3,1,3
1,2993,33,1017,2,5,55,25,20,4,2,0,1,2,2,1,2
0,14399,42,469,22,23,35,2,17,0,6,3,4,7,1,4,3
1,7160,28,1009,1,1,45,1,15,1,0,2,1,0,2,1,2
1,17251,50,959,0,5,81,1,14,3,0,4,4,0,3,4,3
0,13401,33,970,3,4,30,7,17,0,2,3,4,2,2,4,3
0,22478,34,697,0,6,40,3,17,3,0,2,3,0,4,3,2
0,16154,48,1262,5,27,35,1,22,2,4,3,1,1,4,1,4
0,17970,45,1050,15,15,65,9,13,1,10,2,2,12,3,2,2
0,15322,52,994,8,18,87,7,19,7,6,4,2,0,2,2,3
0,5569,38,770,8,9,73,10,14,0,7,2,3,7,3,3,2
0,26968,29,1107,7,11,93,28,22,4,5,1,3,7,4,3,3
0,8039,28,950,9,10,93,3,17,0,7,3,4,7,2,4,3
0,15596,46,406,12,23,52,3,12,3,9,3,1,9,3,1,3
0,20619,38,130,1,10,32,2,16,7,0,2,4,0,2,4,3
0,11535,43,1082,8,18,83,27,11,8,7,1,3,1,1,3,3
1,13547,39,203,18,21,84,2,11,7,7,4,1,5,4,1,3
0,17544,40,1308,20,21,44,14,14,1,7,2,3,9,3,3,2
0,25326,21,984,2,2,70,1,11,1,2,6,4,2,2,4,2
0,8770,39,439,5,9,70,9,15,9,4,2,3,3,2,3,3
0,23238,36,217,11,18,78,18,20,2,9,0,1,9,4,1,3
0,21981,31,793,2,3,67,20,12,0,2,4,3,2,4,3,4
0,19911,28,1451,5,6,67,2,17,0,3,2,1,4,2,1,2
0,18500,35,1182,5,5,54,11,11,1,2,3,4,2,4,4,3
0,11879,49,174,9,22,56,8,17,6,8,3,4,3,2,4,2
0,15834,34,1003,3,5,95,2,11,2,2,3,4,2,3,4,3
0,17940,29,490,7,8,61,10,14,0,5,2,4,1,2,4,3
0,9558,42,188,1,16,56,29,19,4,0,3,2,0,4,2,1
0,17689,29,718,10,10,79,8,15,1,7,2,2,2,4,2,2
0,6004,38,433,7,7,37,1,13,1,6,2,3,0,3,3,4
0,22088,28,773,3,3,39,6,14,1,1,2,3,2,3,3,2
1,13556,18,247,0,0,80,8,12,1,0,0,3,0,3,3,3
1,18385,33,603,5,6,77,9,17,0,2,3,1,3,1,1,3
0,9051,41,167,1,6,46,12,11,3,0,4,2,0,4,2,3
1,6233,31,874,2,2,72,15,12,1,2,5,3,2,3,3,3
0,17171,37,367,6,9,52,25,13,7,2,2,3,3,4,3,2
0,7950,27,199,4,4,55,6,13,1,2,0,4,2,3,4,2
0,5829,34,1400,6,6,70,9,20,1,5,3,2,3,3,2,3
0,7108,35,528,5,6,100,8,17,1,4,2,3,4,3,3,3
1,11162,29,408,11,11,45,23,13,1,8,3,4,10,1,4,2
0,13782,40,593,18,20,88,9,17,9,7,3,2,13,3,2,3
1,2447,42,481,21,22,44,12,12,0,9,2,3,14,1,3,3
0,2253,42,647,6,9,45,4,13,7,4,3,2,5,1,2,3
0,16340,35,982,8,10,58,1,12,6,0,2,4,7,3,4,2
0,6409,24,477,4,6,49,24,22,8,3,2,4,2,2,4,3
1,22955,28,1485,1,1,79,12,11,1,1,4,3,0,4,3,3
0,13421,26,1384,8,8,82,3,22,1,7,2,1,7,4,1,4
0,2706,30,852,10,10,72,10,18,1,3,3,3,4,3,3,2
0,21203,40,902,1,16,92,26,13,3,1,3,3,0,4,3,2
0,19588,35,819,7,15,44,2,18,2,7,2,3,4,2,3,2
0,25755,34,669,13,14,97,1,20,0,9,3,4,9,1,4,2
0,26537,35,636,2,2,47,4,13,1,2,2,4,2,4,4,2
1,9489,43,1372,4,7,85,9,13,8,3,2,1,3,3,1,1
0,14947,32,862,1,1,76,2,12,1,0,3,3,0,1,3,3
0,18575,56,718,5,28,92,4,13,4,2,2,4,2,1,4,3
0,26342,29,1401,10,10,54,6,13,1,8,5,2,8,4,2,3
0,7172,19,645,1,1,54,9,25,1,1,4,3,0,1,3,3
0,20100,45,1457,3,7,83,7,19,4,2,2,1,2,3,1,3
0,9961,37,977,14,14,56,1,13,1,8,2,4,11,4,4,2
0,12828,20,805,2,2,87,3,12,1,2,2,1,2,3,1,2
1,10826,44,1097,6,6,96,10,11,1,4,4,3,2,3,3,3
0,18640,53,1223,7,26,50,7,18,3,7,6,4,7,3,4,3
0,26933,29,942,5,6,69,15,18,0,4,2,2,3,4,2,1
1,4223,22,1256,0,1,48,3,11,0,0,5,3,0,4,3,2
0,24097,46,1402,26,28,69,2,23,8,15,2,3,9,1,3,3
0,4279,44,111,0,6,74,17,13,2,0,3,4,0,3,4,1
0,8429,33,147,5,5,99,2,13,1,4,2,2,4,3,2,3
1,20293,41,906,1,5,95,5,17,6,0,2,1,0,1,1,2
0,13192,30,1329,4,8,61,29,19,8,3,3,3,3,1,3,3
0,25440,40,1184,0,5,62,2,12,5,0,2,2,0,2,2,3
0,9490,50,1421,2,32,30,2,22,2,2,3,4,2,1,4,3
0,12449,28,1179,6,6,78,19,12,1,5,2,4,3,1,4,2
0,10849,46,1450,4,25,52,15,11,5,2,2,4,3,2,4,3
0,21026,35,1361,7,15,94,17,15,3,7,2,3,7,1,3,3
1,3372,24,984,1,1,97,17,13,1,0,3,4,0,2,4,3
0,4905,33,1146,10,10,82,25,12,1,7,3,2,1,3,2,3
0,6865,36,917,7,7,60,6,14,1,7,4,3,7,3,3,1
0,11309,30,853,10,10,49,7,13,1,7,4,3,9,3,3,3
0,7744,44,200,20,20,32,29,25,1,11,3,4,17,4,4,3
0,5050,20,654,2,2,43,21,17,1,1,2,3,2,4,3,4
0,17433,46,150,6,12,60,2,11,2,3,3,4,4,4,4,3
0,12858,42,179,4,10,79,2,16,7,3,3,4,3,1,4,4
0,10893,60,696,11,12,52,7,18,0,7,3,2,9,4,2,4
0,7331,32,116,2,2,77,13,20,1,2,2,3,2,2,3,2
0,2338,32,1316,8,10,38,2,14,4,7,2,4,7,3,4,3
0,4235,36,363,7,17,77,1,21,2,7,2,3,7,1,3,1
0,6311,33,117,14,15,60,9,13,0,10,5,1,10,4,1,3
0,11591,40,107,5,7,84,10,12,7,1,2,2,3,2,2,2
0,20623,25,1356,4,5,57,10,14,0,3,4,3,1,4,3,3
0,9369,30,1465,11,12,63,1,21,0,9,2,4,7,2,4,3
0,23281,42,458,1,20,60,26,17,3,0,6,1,0,1,1,3
0,13755,35,1212,13,16,78,8,11,4,2,6,3,12,4,3,2
0,14377,27,1103,9,9,42,14,14,1,7,3,1,8,1,1,3
0,9659,54,966,5,33,53,1,17,7,4,2,4,4,3,4,3
0,19982,44,1117,10,10,72,2,13,1,5,5,1,7,4,1,4
1,6148,19,504,1,1,96,10,25,1,1,2,1,0,2,1,2
0,5598,29,1010,3,3,97,1,15,1,2,5,1,2,4,1,3
0,23474,54,685,10,36,85,3,14,3,9,2,4,9,4,4,3
0,17089,31,1332,6,6,80,11,12,1,5,2,3,1,1,3,3
0,17198,31,1062,10,10,96,24,19,1,9,2,3,8,1,3,2
0,16490,59,326,6,13,48,3,17,5,1,2,3,5,4,3,2
0,18625,43,920,8,25,96,3,14,3,7,2,3,7,4,3,1
0,12124,49,1098,1,23,85,4,13,2,0,2,1,0,3,1,2
0,9256,36,469,11,12,46,3,12,1,10,2,3,7,2,3,3
0,16620,48,969,1,7,76,2,11,5,0,4,4,0,2,4,4
0,3208,27,1167,5,5,76,4,11,1,3,2,1,3,3,1,3
0,4204,29,1329,6,6,82,7,11,1,0,2,3,0,4,3,3
0,8733,48,715,1,25,76,1,12,6,0,3,4,0,4,4,2
0,3423,29,694,7,9,87,1,14,3,7,2,4,7,4,4,2
0,21643,34,1320,1,2,89,20,17,0,0,5,3,0,3,3,4
0,8751,44,1099,22,26,88,5,11,7,9,5,2,10,2,2,3
0,21708,33,536,9,10,82,10,14,0,8,3,4,8,3,4,4
0,21221,19,265,1,1,57,25,12,1,0,2,2,1,4,2,4
0,16901,23,373,1,1,47,1,22,1,0,2,4,1,3,4,3
1,8040,25,599,1,1,73,24,14,1,0,4,3,0,4,3,1
0,9973,26,583,8,8,53,4,20,1,5,2,3,2,4,3,3
1,2493,45,1449,24,26,94,2,16,2,10,2,1,11,2,1,1
0,25592,55,177,33,34,37,8,15,1,9,3,4,0,2,4,2
1,25308,21,251,2,2,45,10,20,1,2,2,1,2,3,1,2
0,9946,46,168,11,26,33,4,14,2,4,2,4,8,2,4,2
0,6039,34,131,3,4,86,2,12,0,2,3,3,2,1,3,3
0,19196,51,237,29,31,83,9,24,4,10,5,4,10,2,4,3
0,20002,59,1429,9,25,67,18,12,6,7,6,4,4,4,4,3
0,22534,34,135,11,15,46,19,13,4,8,2,3,10,2,3,3
0,6842,28,791,4,5,44,1,11,0,2,2,4,2,3,4,3
0,17477,44,1199,25,26,92,4,14,1,9,4,3,13,1,3,4
0,21833,34,648,10,14,56,11,11,4,9,5,3,8,2,3,2
0,6020,35,735,3,4,66,6,14,0,2,3,3,2,3,3,3
0,5628,42,603,1,18,78,7,16,6,0,2,2,0,2,2,4
0,20364,43,531,21,23,56,4,14,3,7,3,4,17,4,4,2
0,2323,36,429,16,18,53,2,11,9,14,2,3,12,2,3,3
1,14075,44,621,10,10,73,15,11,1,7,2,1,5,4,1,3
0,14222,28,193,2,2,52,2,12,1,2,2,4,2,4,4,2
0,4257,51,968,7,8,40,6,14,0,0,6,2,7,3,2,2
0,12858,30,879,8,10,72,9,18,7,4,3,3,7,3,3,3
1,17285,29,806,7,10,39,7,13,3,7,2,2,7,3,2,3
0,4732,28,640,3,5,84,1,11,2,2,2,4,2,1,4,3
0,18830,25,266,2,2,40,1,18,1,2,3,4,1,2,4,3
0,11693,32,604,10,10,56,8,15,1,7,4,3,8,4,3,4
0,13035,45,364,0,22,83,25,22,3,0,4,2,0,2,2,3
0,17334,39,412,19,21,94,13,13,6,9,4,3,2,2,3,2
0,26076,58,848,2,2,88,23,12,1,2,3,1,2,3,1,3
1,22845,32,1089,10,10,79,7,18,1,4,3,4,1,3,4,3
1,22154,39,360,5,6,93,23,13,0,2,2,3,3,1,3,3
0,23631,30,1138,9,10,48,6,12,0,2,6,1,7,4,1,2
0,5747,36,325,7,10,63,10,12,3,7,0,4,7,3,4,3
0,22957,46,991,7,10,44,1,12,6,6,3,4,7,1,4,3
0,16392,28,1476,9,10,55,1,11,0,8,6,3,5,4,3,1
0,22422,50,1322,3,25,43,28,11,4,2,2,4,2,1,4,3
1,17235,40,299,5,9,57,25,12,2,4,2,4,0,2,4,2
1,21534,52,1030,8,10,64,5,19,9,7,2,2,7,2,2,3
0,25927,30,634,9,9,95,17,23,1,1,2,2,8,1,2,3
0,13352,39,524,8,9,32,18,11,0,7,6,1,7,3,1,3
0,8935,31,587,10,10,57,2,19,1,8,5,4,6,3,4,3
0,22074,41,256,19,19,40,10,13,1,2,4,3,9,2,3,1
1,8319,31,1060,3,3,54,1,11,1,2,2,4,2,2,4,3
1,14669,44,935,3,10,89,3,12,4,2,4,1,2,1,1,3
0,26582,42,495,20,21,37,2,13,0,8,3,3,10,3,3,3
0,6992,55,282,19,23,58,2,14,4,9,5,4,11,3,4,1
0,4022,56,206,7,36,99,8,14,6,3,4,4,7,2,4,3
0,8532,40,458,4,6,74,16,16,9,2,0,3,0,3,3,3
0,5494,34,943,9,10,86,9,11,0,7,0,4,6,4,4,3
0,22455,40,523,9,9,98,2,13,1,8,4,3,8,4,3,3
0,4297,41,1018,9,10,66,1,17,0,3,2,3,7,1,3,3
0,2690,35,482,9,9,87,4,11,1,6,3,3,1,3,3,3
0,17588,51,770,33,33,84,5,11,1,9,2,3,10,2,3,3
0,19461,38,1009,7,11,31,2,15,3,7,3,2,7,1,2,3
0,23553,34,507,10,10,66,15,12,1,8,6,3,6,1,3,3
0,9075,25,882,3,7,67,19,11,3,2,6,4,2,4,4,3
1,12023,58,601,10,31,53,7,14,7,9,0,3,9,1,3,2
0,6762,40,329,4,7,88,1,22,3,2,3,2,3,2,2,3
0,2261,36,607,15,17,83,7,16,2,7,2,1,13,1,1,4
0,18706,48,855,10,11,54,4,11,1,9,2,4,8,4,4,3
0,6527,27,1291,1,5,98,11,14,8,0,4,3,0,4,3,4
0,24439,51,1405,5,29,82,11,16,3,2,1,4,3,2,4,2
0,19305,18,1124,0,0,97,1,15,1,0,5,4,0,4,4,3
0,10846,35,817,9,10,60,1,12,0,7,0,4,0,4,4,2
0,20392,27,793,6,8,43,2,20,3,2,3,4,0,4,4,1
1,9277,55,267,19,24,85,13,17,6,7,2,1,8,3,1,4
0,18235,56,1369,19,33,68,23,12,4,16,0,4,9,2,4,3
0,15891,34,999,5,5,92,26,20,1,4,2,1,0,3,1,2
0,13888,40,1202,12,15,89,2,20,5,11,0,2,8,3,2,4
0,17491,34,285,8,10,86,29,13,4,7,1,2,7,3,2,3
1,11882,31,703,1,3,90,2,14,7,0,3,3,0,4,3,2
1,23288,35,662,4,5,67,18,18,0,2,0,4,2,3,4,3
0,15748,38,693,4,4,57,7,11,1,2,2,4,3,3,4,4
0,6163,34,404,14,14,98,2,11,1,11,2,3,11,4,3,3
0,24232,28,736,5,5,48,26,11,1,3,0,3,4,1,3,2
1,21057,31,330,10,10,98,22,15,1,2,3,4,7,3,4,3
0,3567,39,1498,5,8,44,21,12,3,4,2,1,4,4,1,2
0,15395,51,541,4,14,52,2,11,2,2,5,2,2,2,2,3
0,13953,41,1200,6,12,75,22,14,3,2,4,4,3,4,4,3
0,5182,37,1439,6,8,54,4,15,7,4,2,3,3,3,3,3
0,19293,33,1111,5,8,61,5,13,6,4,2,2,2,4,2,3
0,20497,32,499,3,4,36,2,13,0,2,3,3,2,2,3,3
0,3449,39,1485,6,13,71,25,21,3,4,2,3,5,3,3,3
0,12477,25,1372,3,6,93,18,11,2,2,3,1,2,3,1,4
0,9731,52,322,5,24,59,28,11,2,3,3,4,2,3,4,4
0,20003,43,930,20,20,73,6,14,1,7,3,1,8,3,1,2
0,7100,27,205,6,6,98,10,11,1,2,3,4,4,4,4,2
1,25681,27,135,8,8,51,17,13,1,2,2,4,7,3,4,3
0,4050,26,683,4,5,36,2,12,0,3,2,1,1,4,1,2
0,16616,42,1147,20,21,31,10,14,0,7,5,3,9,1,3,3
0,17363,52,258,5,12,54,8,13,9,4,2,3,4,1,3,3
0,19106,37,1462,3,8,94,11,18,4,2,6,1,2,3,1,3
0,19944,35,200,2,10,60,18,11,2,2,2,3,2,4,3,3
0,4910,25,949,3,7,81,1,11,4,2,2,1,2,4,1,3
0,23577,26,652,7,8,100,7,12,0,7,2,3,7,1,3,4
0,9769,29,332,10,10,51,17,13,1,9,3,2,9,1,2,2
1,22710,49,1475,4,20,97,28,20,3,3,2,1,3,1,1,2
1,22930,29,337,8,9,84,14,12,0,7,1,3,7,4,3,3
0,5652,54,971,20,29,54,1,19,6,7,3,4,7,4,4,3
0,22456,58,1055,9,32,76,1,21,3,8,3,4,5,1,4,3
0,12414,55,1136,7,31,81,1,13,2,7,4,2,0,4,2,4
0,20763,36,1174,5,15,99,3,16,3,4,3,1,1,2,1,3
1,16154,31,667,1,1,50,1,12,1,0,3,2,0,3,2,1
0,12761,30,855,3,8,73,7,14,7,2,3,4,2,1,4,3
0,8847,31,182,3,9,93,8,11,3,2,3,1,0,2,1,3
0,20284,34,560,4,10,91,1,14,5,3,2,4,3,1,4,3
1,22262,31,202,1,1,34,8,12,1,0,3,1,0,2,1,2
0,7679,27,1377,5,6,91,11,14,0,0,3,2,4,1,2,3
0,22604,36,172,10,10,37,4,16,1,4,2,1,8,4,1,2
0,13494,36,329,3,11,98,16,13,4,2,3,3,2,1,3,2
0,10205,47,465,6,17,74,1,12,7,5,2,1,2,4,1,3
1,15182,25,383,3,6,68,9,12,3,2,2,1,2,1,1,2
0,25470,37,1413,6,7,84,5,14,0,5,2,3,3,3,3,4
0,10494,56,1255,3,5,90,1,22,2,2,3,1,0,1,1,3
0,26703,47,359,20,26,82,2,19,3,17,2,1,6,3,1,3
0,15211,24,1476,5,5,42,4,12,1,4,3,4,3,3,4,3
0,23343,32,601,4,7,97,7,12,4,3,3,4,3,4,4,3
0,3708,34,401,5,7,86,1,17,5,4,2,4,2,2,4,2
0,5561,41,1283,4,7,90,5,12,2,2,5,2,3,3,2,4
0,23099,40,663,8,11,81,9,11,3,7,2,3,7,3,3,3
0,8386,31,326,13,13,31,8,18,1,7,5,1,9,4,1,3
1,15986,46,377,7,28,52,9,11,4,7,1,1,3,4,1,3
1,17181,39,592,1,11,54,2,23,2,0,2,1,0,1,1,2
1,8931,31,1445,10,10,100,1,11,1,8,2,3,7,2,3,4
0,19863,45,1038,7,24,95,20,18,2,7,2,2,7,1,2,1
0,24609,31,1398,3,8,96,8,18,9,2,3,4,2,2,4,4
1,21081,31,523,2,7,94,2,13,6,2,2,2,2,4,2,3
0,14720,45,1448,3,10,55,29,18,4,1,4,2,2,4,2,3
0,24795,48,1221,2,15,96,7,11,4,2,3,3,2,1,3,3
1,3072,34,1107,2,2,52,9,15,1,2,0,1,2,3,1,3
0,25178,40,218,9,16,55,8,11,2,8,5,4,8,2,4,2
0,23490,28,866,5,6,84,5,18,0,4,4,4,3,1,4,3
0,7973,44,981,5,7,90,5,14,3,2,5,3,3,3,3,2
0,19764,53,447,9,35,39,2,12,4,8,2,4,8,2,4,4
0,21534,49,1495,3,20,96,5,14,2,2,0,1,2,3,1,3
0,8045,40,896,3,8,68,2,14,2,1,3,3,2,3,3,3
0,21158,44,1467,5,6,49,20,13,1,2,3,4,3,2,4,3
0,17456,33,430,4,5,54,7,14,0,3,2,4,3,1,4,3
0,15891,34,1326,13,15,81,3,18,3,9,2,4,12,1,4,1
0,2939,30,1358,2,4,96,16,15,8,1,2,4,2,3,4,3
0,16458,42,748,12,12,74,9,13,1,9,3,1,8,4,1,3
0,9282,44,383,1,11,79,1,12,7,0,4,1,0,3,1,3
0,7152,30,990,1,1,64,7,13,1,0,2,3,0,3,3,3
0,2721,57,405,12,13,93,1,24,0,9,2,2,8,3,2,4
0,20948,49,1490,8,29,35,7,14,3,7,3,3,7,2,3,3
0,11929,34,829,14,16,71,15,14,7,8,3,2,9,1,2,3
1,15747,28,1496,3,5,92,1,15,3,2,3,1,2,3,1,3
1,17485,29,115,5,7,51,13,11,5,3,4,1,0,2,1,3
1,7815,34,790,15,16,40,24,23,0,9,2,1,10,2,1,2
0,16192,35,660,1,1,76,7,13,1,0,3,4,0,3,4,3
1,16998,24,381,0,4,89,9,11,2,0,2,2,0,1,2,3
0,7103,24,830,1,1,78,13,13,1,0,2,4,0,2,4,3
0,19719,44,1193,2,16,86,2,18,5,2,2,2,2,3,2,3
0,23757,29,1246,10,10,77,19,14,1,7,3,3,4,3,3,2
0,15428,30,330,5,6,46,1,21,0,3,3,3,3,3,3,3
0,16143,55,1229,3,4,30,4,16,0,2,2,4,2,3,4,3
0,8192,33,1099,5,8,82,4,11,8,4,5,1,2,2,1,2
0,24200,47,571,5,11,78,14,17,3,4,4,3,2,3,3,3
1,5355,28,289,0,8,38,2,11,7,0,2,3,0,1,3,2
0,12530,28,1423,1,1,72,1,14,1,0,2,1,0,3,1,2
0,11827,28,467,4,5,55,7,14,0,2,5,3,3,1,3,3
0,23070,49,271,3,10,43,3,25,4,2,3,3,2,1,3,2
0,4668,29,410,3,4,97,2,13,0,2,3,4,2,2,4,3
0,3173,28,1083,8,8,96,29,14,1,6,2,3,7,2,3,1
0,22049,33,516,0,14,69,8,17,2,0,6,4,0,3,4,3
0,21072,32,495,5,10,64,10,25,2,2,5,3,0,4,3,3
0,24456,54,1050,14,26,87,11,20,3,9,2,2,12,4,2,3
1,7568,29,224,9,11,100,1,13,6,7,2,1,7,1,1,2
0,22074,44,136,20,24,32,28,13,3,6,1,4,17,1,4,3
0,9150,39,1089,2,9,32,6,18,4,0,3,2,2,2,2,3
0,11380,46,228,13,23,51,3,12,8,12,2,3,1,2,3,3
0,21195,35,1029,11,11,91,16,19,1,8,3,4,3,2,4,2
0,24812,23,507,4,5,97,20,14,0,3,2,1,2,3,1,3
1,21831,40,676,5,15,86,9,14,3,4,3,4,0,1,4,3
0,12288,34,971,10,10,64,1,14,1,9,3,4,6,3,4,2
1,4156,31,561,7,7,33,3,12,1,2,2,4,7,3,4,3
0,24450,50,333,32,32,88,22,13,1,6,2,3,9,4,3,1
0,4944,34,1440,11,12,55,7,25,0,10,4,2,7,3,2,3
0,24052,42,1210,1,4,68,2,14,4,0,3,3,0,2,3,2
0,3031,37,674,10,10,47,13,17,1,8,2,1,7,4,1,3
0,7288,29,441,7,9,39,8,13,3,7,3,3,7,1,3,1
0,24152,33,575,5,5,44,25,13,1,3,2,4,2,2,4,2
0,4585,45,950,5,8,97,28,20,4,4,3,4,3,4,4,3
0,18611,42,288,20,24,40,2,14,2,8,3,4,9,4,4,3
0,19345,40,1342,8,9,47,9,12,0,4,5,1,1,1,1,3
0,22949,33,589,15,15,79,28,12,1,14,3,2,7,3,2,3
0,17381,40,898,21,21,38,6,21,1,7,2,3,7,4,3,3
0,10036,24,350,1,2,57,21,14,0,1,3,3,0,1,3,2
0,8841,40,1142,2,8,72,8,18,3,2,2,4,2,4,4,3
0,20933,45,538,10,10,66,1,12,1,8,4,1,7,2,1,3
0,26204,35,1402,5,6,98,28,23,0,3,5,2,2,3,2,2
0,15624,32,824,7,12,67,5,12,3,1,2,4,5,2,4,2
0,17001,36,1157,3,7,70,2,21,3,2,3,3,2,4,3,3
0,13693,48,492,8,18,96,16,14,8,7,2,3,7,3,3,3
0,22376,29,598,1,5,91,9,18,6,0,2,3,0,3,3,4
0,10589,33,1242,2,8,46,8,13,2,2,6,1,2,1,1,3
1,5323,30,740,10,10,64,1,11,1,8,4,2,7,1,2,2
0,14814,38,888,6,10,71,10,11,3,3,2,3,2,3,3,3
0,21731,35,992,3,3,68,1,19,1,0,3,4,2,1,4,2
0,17799,30,1288,4,9,33,29,12,3,2,3,3,3,2,3,3
1,26619,35,104,1,1,69,2,12,1,0,2,1,0,1,1,3
1,14618,53,607,33,34,78,2,16,0,7,4,3,9,4,3,2
1,7653,38,903,5,7,81,2,11,4,2,2,3,4,2,3,3
0,25174,32,1200,6,9,62,1,14,4,5,3,4,2,1,4,3
0,16530,48,1108,8,10,65,15,12,8,2,3,3,6,1,3,3
0,22061,34,479,1,1,35,7,13,1,0,4,1,0,4,1,3
0,23037,55,685,36,36,60,26,21,1,6,3,3,13,4,3,2
0,13008,34,1351,2,9,45,1,17,9,2,3,2,1,4,2,3
0,11133,26,474,1,1,89,3,21,1,0,5,1,0,4,1,3
0,12355,38,1245,9,10,80,14,11,0,8,3,3,7,2,3,3
0,16379,38,437,3,8,90,16,12,2,2,5,2,2,2,2,3
0,21447,36,884,1,15,73,1,13,6,0,5,2,0,3,2,3
0,16213,29,1370,10,10,87,3,18,1,9,3,2,5,1,2,3
0,4223,35,670,5,10,51,10,16,3,2,4,1,4,3,1,3
0,4658,39,1462,7,11,38,6,11,2,6,3,4,6,3,4,4
0,24483,29,995,6,6,87,2,19,1,4,0,1,3,4,1,3
0,19519,50,264,1,27,59,9,16,4,0,2,3,0,3,3,3
0,12826,23,977,2,4,45,10,16,2,2,2,4,2,3,4,4
0,19711,36,1302,3,9,80,6,13,3,2,3,1,2,1,1,4
0,26362,42,1059,1,24,93,9,22,8,0,2,4,1,4,4,2
0,25348,35,750,10,10,46,28,17,1,9,3,2,8,3,2,4
0,15332,34,653,8,8,92,10,14,1,2,3,4,7,3,4,2
0,11262,40,118,5,5,84,14,15,1,4,2,4,2,1,4,3
0,5855,43,990,6,8,87,27,12,5,4,0,4,2,2,4,4
0,7713,35,1349,1,1,63,7,18,1,0,5,3,1,4,3,2
0,3156,46,563,26,27,56,1,15,1,0,5,4,12,1,4,4
1,7324,28,329,1,1,51,24,17,1,1,3,3,0,2,3,3
0,10293,22,457,4,4,85,26,14,1,2,2,2,3,3,2,2
0,20689,50,1234,30,32,41,20,15,2,8,3,2,13,3,2,3
0,18783,32,634,3,6,35,5,17,3,2,3,2,2,4,2,4
0,3549,44,1313,22,23,31,7,14,0,7,4,2,10,4,2,3
0,5348,30,241,6,6,48,7,12,1,4,3,2,1,2,2,2
0,23447,45,1015,10,10,50,5,14,1,7,3,3,4,1,3,1
0,24162,45,336,10,10,52,26,15,1,7,2,1,5,1,1,2
0,21602,31,715,5,10,54,2,13,7,2,3,4,3,1,4,3
0,12421,36,559,3,7,76,12,12,9,2,2,3,1,3,3,3
0,17000,34,426,9,9,42,10,13,1,7,3,3,2,4,3,4
0,22102,49,722,9,10,84,25,14,1,6,3,3,4,1,3,3
0,3835,39,1387,7,10,76,10,13,2,7,3,2,7,1,2,3
0,16290,27,1302,7,7,67,19,11,1,7,3,4,7,1,4,2
0,26312,35,819,16,16,48,18,11,1,15,2,2,10,1,2,4
0,20460,28,580,5,6,39,27,21,0,3,5,2,0,1,2,1
0,26009,21,546,2,3,97,5,18,1,2,2,3,2,4,3,3
1,18420,18,544,0,0,70,3,12,1,0,2,2,0,4,2,3
0,5220,47,1176,5,27,98,26,11,3,2,2,4,0,3,4,3
0,10302,39,170,10,11,76,3,15,0,8,3,3,7,3,3,2
0,25800,40,884,18,18,80,15,13,1,15,2,1,12,3,1,2
0,12250,35,208,14,15,52,8,12,1,11,5,3,9,3,3,3
0,26493,37,671,4,9,85,19,17,3,3,2,3,2,3,3,3
0,3140,39,711,9,10,81,4,13,0,2,2,1,8,3,1,3
0,5388,45,1329,10,10,59,2,19,1,7,3,4,9,4,4,2
0,14199,38,397,5,10,54,2,19,3,4,6,4,2,3,4,2
1,21530,35,737,13,15,55,10,17,9,12,3,4,0,1,4,2
0,9953,37,1470,8,8,71,10,11,1,4,2,2,7,2,2,3
0,19948,40,448,4,18,84,16,15,6,2,2,3,3,4,3,3
0,10503,44,602,10,14,37,1,11,4,7,3,1,2,4,1,3
0,5602,48,365,2,23,89,4,25,2,2,3,3,2,4,3,2
1,22098,35,763,2,7,59,15,14,6,2,2,1,2,4,1,1
0,17218,24,567,6,6,32,2,13,1,3,2,1,3,4,1,3
0,22490,27,486,3,5,86,8,17,7,2,0,2,2,3,2,4
0,6297,27,591,4,6,87,2,13,2,2,0,4,2,4,4,3
1,3339,40,1329,4,10,73,7,14,3,2,3,1,3,1,1,3
0,23413,29,469,5,8,42,10,11,9,2,2,3,4,3,3,2
0,22792,36,711,3,9,42,5,12,4,2,6,2,2,1,2,3
0,4973,25,772,7,7,77,2,17,1,7,6,4,7,3,4,4
0,7693,39,492,5,7,66,12,21,4,4,3,4,0,2,4,3
0,3498,49,301,4,27,72,22,16,3,2,2,1,2,2,1,3
0,21981,50,813,14,19,50,17,15,5,11,3,4,11,1,4,2
0,13251,20,1141,2,2,31,2,19,1,2,3,3,2,3,3,3
0,19332,34,1130,11,11,66,3,12,1,8,2,4,9,2,4,3
0,10950,36,311,4,15,77,7,11,2,3,4,1,3,2,1,3
0,11652,49,465,15,30,41,6,19,2,11,3,3,12,3,3,2
0,15411,36,894,3,4,33,1,15,0,2,6,4,2,3,4,2
0,26308,36,1040,5,13,79,3,20,6,4,3,4,4,1,4,4
0,18685,54,584,10,36,91,22,25,3,8,6,2,7,3,2,3
0,3525,43,1291,14,14,65,15,24,1,10,3,3,11,3,3,2
1,10414,35,880,11,13,36,12,24,3,9,2,4,7,4,4,3
0,9867,38,1189,13,19,90,1,15,7,11,4,4,9,4,4,3
0,3356,29,991,10,10,43,5,13,1,0,3,1,9,2,1,2
0,3921,33,392,6,6,93,2,14,1,2,5,4,4,4,4,3
0,25518,32,977,9,10,45,2,13,0,5,4,4,6,2,4,3
0,22589,31,1112,10,10,67,5,11,1,0,2,1,2,4,1,3
0,24941,49,464,2,17,74,16,16,4,2,2,4,2,1,4,3
0,23826,38,148,4,4,42,2,22,1,3,3,4,3,2,4,2
0,21086,47,1225,3,29,47,2,14,6,2,2,2,2,2,2,4
0,22384,49,809,8,23,36,1,14,4,7,2,3,0,3,3,3
0,11591,41,1206,2,21,80,23,16,3,0,2,4,2,3,4,3
0,21082,20,727,2,2,54,9,11,1,2,3,4,2,1,4,3
0,16130,33,530,6,7,36,16,25,1,5,2,3,2,4,3,3
0,7419,36,1351,3,10,80,26,14,6,2,2,1,2,3,1,3
0,4167,44,528,2,8,44,1,18,4,2,2,3,2,4,3,3
1,20586,23,1320,5,5,93,8,11,1,4,2,4,2,3,4,2
0,26176,38,1495,0,7,87,4,19,7,0,5,4,0,3,4,3
0,3458,53,1395,4,11,48,24,15,3,3,2,2,2,4,2,4
1,11740,48,708,9,19,95,7,11,2,7,3,4,7,3,4,3
1,24852,32,1259,1,1,95,2,12,1,0,2,4,0,2,4,3
0,11925,26,786,7,7,76,7,20,1,7,5,4,7,4,4,3
0,23737,55,1441,4,8,94,22,12,5,2,1,1,2,2,1,2
0,11912,34,1157,15,15,57,5,14,1,10,3,2,13,4,2,2
0,20467,60,370,1,19,92,1,20,3,0,2,3,0,4,3,1
0,13637,33,267,14,14,79,21,18,1,11,6,2,13,2,2,4
0,7677,37,1278,6,6,31,1,14,1,3,2,3,3,4,3,1
0,20338,34,678,10,10,35,19,12,1,9,3,2,7,4,2,2
1,25103,23,427,3,3,99,7,21,1,2,2,3,2,4,3,3
0,14810,44,921,8,9,96,2,19,1,7,2,3,7,4,3,4
0,13970,35,146,5,6,79,2,14,0,4,2,1,4,4,1,2
0,6069,43,1179,10,10,73,2,17,1,9,3,4,8,4,4,3
0,17616,24,581,5,5,62,9,16,1,3,1,3,4,3,3,4
0,15869,41,918,10,10,35,6,12,1,8,3,4,7,3,4,3
0,25412,29,1082,5,9,43,9,17,9,3,2,4,2,3,4,3
0,7439,36,530,13,17,51,2,15,3,7,2,3,7,4,3,3
0,3395,45,1238,23,25,74,1,23,3,15,3,3,4,3,3,2
1,11585,24,240,1,1,58,22,11,1,0,2,4,0,3,4,1
1,24164,47,1093,23,25,82,9,11,7,5,3,3,10,3,3,1
0,6217,26,390,3,3,62,17,15,1,2,3,4,2,3,4,1
0,17119,45,1005,21,21,48,28,11,1,6,2,4,6,2,4,2
0,17360,32,585,5,10,56,10,13,6,2,3,1,3,3,1,3
0,18103,31,741,5,6,69,2,14,1,2,2,2,3,3,2,3
0,20794,41,552,3,10,60,4,19,6,2,4,3,2,2,3,1
0,5041,40,369,1,18,92,8,16,2,0,3,2,0,1,2,3
0,3622,24,506,6,6,91,29,13,1,2,2,2,2,1,2,3
0,9697,46,717,10,19,34,13,14,6,7,3,3,9,2,3,3
0,5151,35,1370,7,17,49,27,16,2,7,3,4,7,3,4,3
0,3811,30,793,10,10,33,16,12,1,0,2,2,8,4,2,3
0,3536,47,543,1,4,87,2,11,7,0,3,3,0,2,3,3
0,5596,46,1277,10,13,74,2,12,4,6,5,3,3,4,3,3
1,8658,36,1456,2,16,96,13,13,5,2,3,2,2,1,2,2
1,12147,32,964,0,10,34,1,15,6,0,2,1,0,2,1,1
0,12862,23,160,3,3,51,4,13,1,2,3,3,2,2,3,3
0,6670,31,163,5,9,30,24,20,2,4,3,4,4,4,4,3
0,8989,39,792,9,9,77,1,15,1,8,2,4,8,4,4,3
0,3840,32,371,4,10,80,19,13,3,3,2,4,2,3,4,1
0,4349,40,611,21,21,88,7,14,1,8,3,2,8,2,2,3
0,6595,45,176,5,9,56,4,21,4,0,2,3,3,3,3,1
0,26427,30,1312,9,10,78,2,16,0,7,2,4,7,1,4,2
0,2097,24,897,2,3,59,10,14,0,2,2,1,1,4,1,3
1,9732,30,600,4,6,66,8,11,6,2,0,3,2,4,3,2
0,20943,31,1003,5,6,51,5,19,1,2,3,1,2,3,1,3
0,6152,27,1054,6,6,67,8,11,1,2,5,3,4,4,3,3
1,14630,29,428,2,2,52,9,13,1,2,3,2,2,2,2,1
0,23060,29,461,3,10,70,1,12,8,2,5,4,2,3,4,4
0,3088,30,979,7,12,94,15,11,2,7,2,3,7,1,3,2
0,5586,34,181,5,6,97,2,14,0,0,3,4,2,4,4,4
0,10697,33,1283,11,13,62,2,15,8,7,2,4,7,2,4,3
0,8191,49,1313,5,8,80,11,12,3,1,1,4,4,4,4,3
1,10092,33,211,0,11,74,16,20,2,0,2,1,0,1,1,3
0,15963,38,594,6,9,75,2,14,4,1,4,3,5,2,3,2
1,19002,31,1079,1,10,70,16,13,2,0,2,1,0,3,1,3
0,10007,29,590,1,1,91,4,13,1,0,2,4,0,1,4,2
0,9128,30,305,7,10,58,16,16,3,0,3,3,7,3,3,4
0,17674,32,953,7,12,65,5,14,2,7,3,2,7,2,2,3
0,24539,38,833,1,15,60,18,16,3,0,2,2,0,4,2,1
1,15587,43,807,1,6,38,17,16,9,0,4,3,0,3,3,2
0,8952,42,855,5,7,57,12,22,8,3,6,2,4,2,2,3
0,19805,55,478,1,34,60,2,12,8,0,2,3,0,1,3,2
0,6194,33,775,9,11,90,4,15,5,8,2,4,7,2,4,3
0,20520,41,548,5,5,94,9,20,1,3,2,3,4,1,3,3
0,12313,34,1375,15,15,87,10,14,1,14,3,4,7,3,4,3
0,22308,53,661,3,27,60,1,20,4,2,2,1,2,3,1,2
0,5033,43,244,9,10,97,2,13,0,7,5,2,8,4,2,3
0,25353,34,511,2,6,32,3,12,5,2,3,4,2,4,4,1
1,4567,21,337,1,1,31,7,13,1,0,3,2,0,2,2,3
0,16376,38,1153,5,5,40,6,11,1,4,3,4,4,3,4,2
1,15999,22,1294,1,1,79,8,17,1,0,6,3,0,1,3,3
0,13402,31,196,12,13,91,29,14,1,7,3,1,7,4,1,2
0,22984,51,942,2,15,53,3,11,2,2,2,1,2,3,1,3
0,8800,37,589,5,5,46,9,14,1,2,2,2,3,2,2,2
0,14218,46,734,2,24,46,2,17,7,1,3,3,2,4,3,3
0,25949,36,1383,12,15,90,10,13,7,8,1,4,7,1,4,3
1,11092,44,429,5,6,99,1,12,1,3,2,3,3,2,3,3
0,12832,37,1239,10,19,89,8,13,2,0,4,3,7,2,3,3
1,13492,35,303,10,10,84,27,18,1,7,2,3,7,4,3,3
0,6076,33,867,10,14,90,8,19,6,8,1,4,6,1,4,4
0,5531,28,1181,5,5,82,1,11,1,3,6,3,3,4,3,3
0,7914,39,1253,4,9,65,10,21,7,3,3,3,2,3,3,3
0,25166,46,849,2,6,98,26,15,8,2,3,2,2,2,2,2
0,25605,40,616,4,7,99,2,17,4,3,5,3,2,1,3,3
0,5696,42,1128,0,10,95,13,18,5,0,2,2,0,1,2,4
0,24442,35,1180,7,15,90,2,14,2,7,6,2,7,4,2,3
0,7129,38,1336,11,13,100,2,13,5,10,3,1,8,2,1,3
1,6208,34,234,7,11,93,9,17,4,1,3,4,7,1,4,3
1,4992,37,370,10,10,58,10,15,1,3,4,4,8,1,4,3
0,19188,39,766,2,7,83,20,18,2,1,6,3,2,4,3,3
0,24978,43,343,3,7,52,9,13,4,2,2,1,2,3,1,3
0,15530,41,447,3,11,85,5,12,3,2,3,2,2,2,2,4
0,26458,41,796,22,23,81,4,13,0,14,3,3,5,3,3,3
0,2739,30,1092,7,9,64,10,14,9,7,3,1,2,3,1,3
1,6889,26,920,5,6,69,20,11,0,1,3,4,4,2,4,3
1,10842,46,261,9,13,66,21,22,4,7,2,4,7,2,4,3
0,9060,40,1194,5,12,52,1,17,4,3,3,3,3,4,3,3
0,22128,34,810,10,10,92,8,21,1,8,5,2,8,3,2,4
0,22577,58,350,16,37,52,2,22,4,9,0,2,14,2,2,3
0,9696,35,185,5,6,91,23,16,0,4,2,2,3,3,2,1
0,19271,47,1001,22,28,92,4,12,8,11,4,3,10,2,3,2
0,10748,40,750,7,15,47,12,12,2,4,3,2,7,1,2,3
0,15696,54,431,7,14,68,7,15,4,1,2,4,7,4,4,3
0,8277,31,1125,3,9,68,7,14,2,2,3,1,2,1,1,3
0,12719,28,1217,3,3,67,1,25,1,2,3,3,2,1,3,3
0,4244,38,723,4,20,77,2,20,2,2,4,2,3,4,2,1
0,9125,26,572,5,5,46,10,13,1,3,4,3,2,4,3,3
0,21624,58,1216,2,23,87,15,14,2,2,3,1,2,3,1,3
0,8018,18,1431,0,0,33,14,16,1,0,4,2,0,3,2,3
1,21495,31,359,1,2,89,18,17,0,0,4,4,0,1,4,4
1,3157,29,350,2,4,56,13,15,4,2,3,1,0,1,1,2
0,19665,45,589,8,10,67,2,22,4,7,3,3,7,3,3,3
0,19573,36,430,1,15,73,2,22,4,0,2,4,0,2,4,3
0,19246,43,1422,7,7,92,2,20,1,7,5,1,7,4,1,3
0,19826,27,1297,5,6,53,5,14,0,4,3,4,2,4,4,3
0,7003,29,574,11,11,40,20,13,1,8,3,4,10,4,4,3
0,26075,32,1318,0,4,79,10,13,8,0,2,4,0,4,4,3
0,6161,42,355,6,10,38,10,22,3,3,1,3,3,3,3,3
0,5411,47,207,2,7,64,9,12,4,2,2,2,0,3,2,3
0,19989,46,706,9,12,82,2,14,3,8,4,4,7,4,4,3
0,10494,28,280,3,3,43,1,15,1,2,2,3,2,4,3,3
0,21143,29,726,7,11,93,29,17,8,0,3,4,6,3,4,1
0,13624,42,1142,0,8,81,8,13,4,0,3,4,0,3,4,3
1,26186,32,414,2,7,82,2,12,7,2,3,3,2,2,3,2
0,7739,46,1319,19,25,45,3,12,2,17,5,1,8,1,1,4
0,7018,27,728,9,9,36,23,21,1,8,5,2,8,3,2,2
0,15434,29,352,1,1,87,6,11,1,0,3,4,0,2,4,2
0,22539,43,823,16,21,81,6,13,7,12,2,1,14,3,1,2
0,13583,48,1224,22,29,91,10,12,4,10,3,4,9,2,4,2
1,14753,29,459,1,1,73,24,24,1,0,3,4,0,4,4,2
1,14011,46,1254,8,14,64,10,21,5,7,2,3,7,2,3,3
0,23844,27,1131,7,8,77,15,19,0,6,2,4,3,1,4,2
0,5141,39,835,2,7,41,19,14,8,2,2,4,2,4,4,3
0,7975,55,836,5,19,98,2,20,8,2,2,2,4,4,2,2
0,3692,28,1172,1,1,78,3,19,1,0,3,2,0,2,2,3
1,16019,30,945,1,1,89,9,13,1,0,3,2,0,4,2,3
1,26092,22,391,1,1,75,7,23,1,0,2,4,0,2,4,3
0,6060,36,1266,10,10,63,10,13,1,9,4,2,7,3,2,2
0,18624,31,311,10,10,89,20,11,1,8,2,2,2,3,2,3
0,24444,34,1480,5,9,64,4,13,2,3,3,3,0,4,3,3
0,19384,29,592,3,11,59,7,14,3,2,2,4,2,1,4,3
0,13588,37,783,5,16,78,7,22,5,3,2,4,4,1,4,3
0,25388,35,219,3,4,44,16,11,0,2,2,4,2,2,4,2
0,23888,45,556,9,10,93,25,13,0,8,2,2,8,4,2,2
0,4223,36,1213,10,10,94,2,21,1,1,2,2,8,4,2,2
0,18991,40,1137,19,22,98,1,11,2,7,3,1,16,1,1,3
0,14908,26,482,1,1,90,1,13,1,0,3,2,0,3,2,2
0,26997,27,511,8,9,89,2,14,0,7,5,1,7,3,1,4
0,2437,48,117,22,24,58,22,11,3,17,3,4,7,4,4,3
0,9364,44,170,2,10,78,1,15,2,0,5,2,2,1,2,4
1,14460,34,967,5,5,85,16,23,1,2,2,4,0,1,4,1
1,10261,56,1162,4,5,97,24,16,1,2,3,1,0,4,1,3
0,16822,36,335,4,12,33,17,16,2,2,1,3,3,2,3,2
0,26841,41,337,5,14,54,8,21,5,4,3,3,4,2,3,3
0,14842,42,1396,13,18,83,6,13,9,7,3,3,7,1,3,3
0,20115,31,1079,5,8,86,10,11,2,2,2,3,4,4,3,3
0,16495,34,735,4,9,75,3,12,3,2,3,4,1,4,4,2
0,16031,31,471,2,4,62,4,12,8,2,0,1,2,3,1,4
0,7102,26,1096,7,8,61,6,18,0,7,3,3,7,4,3,4
0,14511,45,1297,4,12,44,1,12,4,2,3,2,3,3,2,3
0,10410,33,217,10,10,43,10,14,1,4,2,2,9,3,2,3
0,19255,28,783,7,7,42,1,12,1,7,2,3,7,4,3,2
1,10642,29,746,1,1,45,24,17,1,0,3,3,0,1,3,4
0,3987,39,1251,3,10,32,21,19,6,2,1,1,2,3,1,1
0,6073,27,1354,5,6,41,2,11,1,3,3,2,2,2,2,3
0,26496,34,735,15,16,86,22,15,1,10,3,3,11,4,3,2
1,23352,28,1475,2,6,84,13,11,3,0,0,4,2,3,4,3
0,2125,47,1169,8,16,64,14,18,8,7,4,3,7,2,3,3
0,20328,56,1443,0,6,89,11,16,4,0,3,4,0,1,4,2
0,12315,39,867,10,10,87,9,25,1,0,3,1,9,1,1,3
0,18115,38,1394,20,20,58,8,16,1,11,3,4,7,2,4,2
0,11761,58,605,1,29,72,21,13,4,0,2,4,0,4,4,3
1,15318,32,238,4,8,47,5,14,3,1,2,1,3,3,1,4
0,14293,38,1206,5,10,71,9,19,2,2,0,2,3,4,2,3
0,13738,49,1064,5,28,42,2,15,3,4,3,2,3,4,2,3
0,2900,42,419,0,14,77,12,12,3,0,4,2,0,4,2,3
1,19555,27,1337,1,1,58,22,12,1,0,2,1,0,2,1,2
0,15975,35,682,5,6,71,18,16,0,3,2,2,4,1,2,3
0,2122,28,1103,5,5,49,16,14,1,3,3,3,4,3,3,3
0,3995,31,976,4,4,48,3,13,1,2,3,3,3,1,3,3
0,9238,36,1351,5,5,66,9,22,1,4,3,1,2,2,1,4
0,6770,34,937,14,14,32,1,21,1,8,3,1,1,4,1,3
0,22914,34,1239,8,9,39,13,18,1,7,2,4,1,3,4,3
0,20006,26,157,7,8,95,1,13,0,7,6,3,6,1,3,3
0,6225,29,136,5,6,89,1,12,0,3,5,1,2,1,1,3
0,16542,32,1146,5,9,34,15,18,5,1,6,3,2,4,3,3
0,5771,31,1125,10,10,48,1,21,1,8,6,4,7,1,4,1
1,18779,28,1404,4,6,32,17,12,5,1,2,3,3,4,3,2
0,11473,38,1404,1,20,59,1,14,4,0,3,1,0,1,1,2
0,13586,35,1224,10,10,55,7,11,1,8,2,3,9,4,3,3
0,5099,27,954,7,7,44,9,14,1,7,5,4,7,4,4,3
0,10138,32,1373,1,8,56,5,24,8,0,1,4,0,4,4,2
1,21075,31,754,10,10,63,26,11,1,7,4,1,8,4,1,3
1,5843,53,1168,2,15,66,24,13,6,2,2,1,2,1,1,3
0,22474,54,155,4,9,67,9,11,3,3,6,1,3,3,1,3
0,18079,33,1303,9,9,36,7,20,1,7,2,4,8,3,4,3
0,16873,43,574,10,10,30,11,17,1,9,1,1,9,3,1,3
0,5224,38,1444,6,7,88,1,11,0,2,2,4,2,2,4,3
0,25811,55,189,10,35,71,26,18,4,9,0,3,4,2,3,4
0,17536,31,1276,1,1,59,2,11,1,0,4,4,0,4,4,1
0,25098,39,119,20,21,77,15,12,0,8,3,2,10,1,2,3
0,14811,42,335,20,20,37,23,12,1,9,2,4,7,3,4,2
0,26862,31,697,11,13,40,10,20,4,7,2,3,8,3,3,3
0,25198,54,157,5,9,77,10,19,6,2,3,3,4,1,3,3
0,14120,24,771,4,4,45,1,12,1,3,2,2,2,3,2,2
0,13672,23,571,5,5,78,12,13,1,2,6,4,4,4,4,3
0,26849,40,692,10,10,73,11,11,1,9,2,4,4,3,4,3
0,4258,40,444,11,15,92,2,14,3,8,4,2,10,2,2,3
0,19655,25,309,2,6,82,2,14,4,0,3,3,2,2,3,3
0,4077,30,911,12,12,76,1,13,1,8,6,4,7,2,4,3
0,7298,25,977,2,7,57,2,19,6,2,2,4,2,3,4,3
0,13084,47,1180,17,25,84,25,23,2,14,3,1,11,3,1,3
0,20439,33,1313,1,1,59,1,12,1,1,2,2,0,3,2,2
0,7636,38,1321,15,16,86,1,15,0,13,3,4,8,2,4,3
0,6393,31,1154,2,3,54,2,19,0,2,1,1,2,3,1,3
0,14284,38,508,8,10,72,6,11,2,3,1,1,7,3,1,2
0,11189,42,557,4,9,35,18,17,6,3,3,4,2,1,4,3
0,21412,41,642,5,12,76,1,22,3,3,3,4,0,4,4,3
0,17231,47,1162,13,14,98,1,18,0,8,3,3,12,2,3,3
0,20232,35,1490,2,5,43,11,11,7,2,3,4,2,3,4,3
0,17624,22,581,3,4,63,1,12,0,2,2,4,2,3,4,3
0,18698,35,1395,10,10,48,9,19,1,7,5,2,8,3,2,3
0,21653,33,501,9,10,95,15,13,0,7,6,2,1,4,2,3
0,15919,32,267,6,6,49,29,13,1,2,3,3,1,2,3,2
0,4060,40,543,1,8,83,1,19,8,0,3,1,0,4,1,3
0,18024,32,234,2,3,68,1,14,0,2,2,2,2,2,2,2
0,5340,39,116,7,18,52,24,13,7,7,2,1,7,4,1,3
0,3376,38,201,18,20,99,10,12,3,16,3,2,11,3,2,1
0,24032,32,801,14,14,48,1,19,1,10,3,3,7,4,3,3
0,15471,37,161,16,16,42,10,25,1,11,2,3,8,4,3,4
0,13684,25,1382,5,6,85,8,22,0,3,3,1,4,3,1,3
0,19788,52,585,9,16,40,29,15,2,8,3,1,0,4,1,3
0,13422,44,1037,4,6,42,1,12,6,3,2,2,2,4,2,3
0,25479,21,501,2,2,58,5,11,1,2,6,3,2,1,3,3
0,15302,39,105,6,21,87,9,13,2,0,3,4,3,4,4,3
1,26956,23,638,1,1,33,9,19,1,0,3,4,0,1,4,3
0,12695,36,557,9,10,94,3,19,0,7,2,1,4,4,1,2
0,9192,36,688,4,18,97,4,13,7,2,3,4,2,2,4,3
0,26236,56,667,13,13,57,1,21,1,12,2,3,9,3,3,3
1,26124,29,1092,2,4,36,1,14,9,2,3,1,2,4,1,3
0,17312,42,300,22,24,56,2,11,5,6,2,1,14,3,1,3
1,3666,56,310,10,14,72,7,11,8,9,4,4,8,3,4,3
0,5640,41,582,20,21,60,28,23,0,7,3,1,10,2,1,2
0,8978,34,704,8,8,95,28,21,1,7,2,4,7,3,4,2
0,10436,36,301,15,15,88,15,24,1,12,4,4,11,4,4,1
0,12227,41,930,5,14,57,3,11,2,4,5,3,4,2,3,2
0,11288,32,529,4,4,78,2,14,1,2,4,4,2,1,4,3
0,16642,35,1146,9,9,31,26,16,1,0,2,3,7,4,3,3
0,5982,38,345,10,10,100,10,11,1,7,1,1,9,4,1,3
1,14255,50,878,6,12,94,1,12,7,3,3,2,1,3,2,3
0,14369,36,1120,6,8,100,11,13,4,3,2,2,0,4,2,2
0,23333,45,374,5,8,50,20,15,8,3,3,4,1,3,4,3
0,2725,40,1322,2,8,52,2,14,2,2,2,3,2,3,3,2
0,24594,35,1199,10,10,80,18,14,1,2,2,3,2,3,3,3
0,12549,40,1194,5,20,98,2,14,2,3,2,3,2,3,3,3
0,8952,35,287,4,4,62,1,12,1,3,5,3,1,4,3,1
0,23679,29,1378,4,10,46,13,13,4,3,2,4,3,2,4,2
0,8489,29,468,5,5,73,28,14,1,4,3,4,4,1,4,2
1,16586,50,410,3,20,39,28,13,4,2,3,4,0,1,4,2
0,8828,39,722,20,21,60,24,11,0,9,2,2,6,4,2,2
0,3787,31,325,9,10,74,5,19,0,4,2,2,7,1,2,3
0,21378,26,1167,4,5,30,5,18,0,2,2,4,0,3,4,2
0,12290,36,884,5,17,41,23,17,4,2,3,3,3,4,3,4
0,21457,39,613,7,9,42,6,15,4,7,5,4,7,1,4,2
0,5174,27,155,6,6,87,4,20,1,2,0,2,3,2,2,4
0,13243,49,1023,9,17,63,2,14,2,6,3,4,8,2,4,2
0,10228,34,628,4,6,82,8,12,2,3,3,2,2,3,2,4
